lab1/codes/CPU.vcd
$date
	Sun Dec 11 17:24:05 2022
$end
$version
	Icarus Verilog
$end
$timescale
	1s
$end
$scope module Ander $end
$var wire 32 ! data1_i [31:0] $end
$var wire 32 " data2_i [31:0] $end
$var wire 1 # data_o $end
$upscope $end
$scope module Equaler $end
$var wire 32 $ data1_i [31:0] $end
$var wire 32 % data2_i [31:0] $end
$var wire 1 & data_o $end
$upscope $end
$scope module TestBench $end
$var reg 1 ' Clk $end
$var reg 1 ( Reset $end
$var reg 1 ) Start $end
$var integer 32 * counter [31:0] $end
$var integer 32 + flush [31:0] $end
$var integer 32 , i [31:0] $end
$var integer 32 - outfile [31:0] $end
$var integer 32 . stall [31:0] $end
$scope module CPU $end
$var wire 1 ' clk_i $end
$var wire 1 ( rst_i $end
$var wire 1 ) start_i $end
$var wire 1 / stall $end
$var wire 32 0 rs2_mem [31:0] $end
$var wire 32 1 rs2_exe_forwarded [31:0] $end
$var wire 32 2 rs2_exe [31:0] $end
$var wire 5 3 rs2_addr_exe [4:0] $end
$var wire 5 4 rs2_addr [4:0] $end
$var wire 32 5 rs2 [31:0] $end
$var wire 32 6 rs1_exe [31:0] $end
$var wire 5 7 rs1_addr_exe [4:0] $end
$var wire 5 8 rs1_addr [4:0] $end
$var wire 32 9 rs1 [31:0] $end
$var wire 1 : regwrite_wb $end
$var wire 1 ; regwrite_mem $end
$var wire 1 < regwrite_exe $end
$var wire 1 = regwrite $end
$var wire 32 > rd_data [31:0] $end
$var wire 5 ? rd_addr_wb [4:0] $end
$var wire 5 @ rd_addr_mem [4:0] $end
$var wire 5 A rd_addr_exe [4:0] $end
$var wire 5 B rd_addr [4:0] $end
$var wire 1 C pcwrite $end
$var wire 32 D pc_id [31:0] $end
$var wire 32 E pc [31:0] $end
$var wire 1 F noop $end
$var wire 32 G next_pc_no_branch [31:0] $end
$var wire 32 H next_pc_branch [31:0] $end
$var wire 32 I next_pc [31:0] $end
$var wire 1 J memwrite_mem $end
$var wire 1 K memwrite_exe $end
$var wire 1 L memwrite $end
$var wire 1 M memread_mem $end
$var wire 1 N memread_exe $end
$var wire 1 O memread $end
$var wire 32 P mem_result_wb [31:0] $end
$var wire 32 Q mem_result [31:0] $end
$var wire 1 R mem2reg_wb $end
$var wire 1 S mem2reg_mem $end
$var wire 1 T mem2reg_exe $end
$var wire 1 U mem2reg $end
$var wire 1 V is_zero $end
$var wire 32 W instruction_id [31:0] $end
$var wire 32 X instruction [31:0] $end
$var wire 32 Y imm_exe [31:0] $end
$var wire 32 Z imm [31:0] $end
$var wire 2 [ forwardB [1:0] $end
$var wire 2 \ forwardA [1:0] $end
$var wire 1 ] do_branch $end
$var wire 1 ^ branch $end
$var wire 1 _ alusrc_exe $end
$var wire 1 ` alusrc $end
$var wire 4 a aluctrl_exe [3:0] $end
$var wire 4 b aluctrl [3:0] $end
$var wire 32 c alu_result_wb [31:0] $end
$var wire 32 d alu_result_mem [31:0] $end
$var wire 32 e alu_result [31:0] $end
$var wire 32 f alu_op2 [31:0] $end
$var wire 32 g alu_op1 [31:0] $end
$scope module ALU $end
$var wire 1 V zero $end
$var wire 5 h shamt [4:0] $end
$var wire 32 i op2 [31:0] $end
$var wire 32 j op1 [31:0] $end
$var wire 4 k aluctrl [3:0] $end
$var reg 32 l result [31:0] $end
$upscope $end
$scope module Add_PC $end
$var wire 32 m data2_i [31:0] $end
$var wire 32 n data_o [31:0] $end
$var wire 32 o data1_i [31:0] $end
$upscope $end
$scope module Branch_Detection $end
$var wire 1 ] do_branch $end
$var wire 32 p rs2 [31:0] $end
$var wire 32 q rs1 [31:0] $end
$var wire 32 r pc_id [31:0] $end
$var wire 32 s imm [31:0] $end
$var wire 32 t branch_addr [31:0] $end
$var wire 1 ^ branch $end
$upscope $end
$scope module Control $end
$var wire 1 ^ branch $end
$var wire 3 u funct3 [2:0] $end
$var wire 7 v funct7 [6:0] $end
$var wire 1 w is_beq $end
$var wire 1 x is_i_type $end
$var wire 1 y is_load $end
$var wire 1 z is_r_type $end
$var wire 1 { is_store $end
$var wire 1 U mem2reg $end
$var wire 1 O memread $end
$var wire 1 L memwrite $end
$var wire 7 | opcode [6:0] $end
$var wire 1 = regwrite $end
$var wire 1 F noop $end
$var wire 1 ` alusrc $end
$var wire 4 } aluctrl [3:0] $end
$var reg 2 ~ aluop [1:0] $end
$scope module alucontrol $end
$var wire 2 !" aluop [1:0] $end
$var wire 3 "" funct3 [2:0] $end
$var wire 7 #" funct7 [6:0] $end
$var reg 4 $" aluctrl [3:0] $end
$upscope $end
$upscope $end
$scope module Data_Memory $end
$var wire 1 ' clk_i $end
$var wire 32 %" data_o [31:0] $end
$var wire 32 &" data_i [31:0] $end
$var wire 32 '" addr_i [31:0] $end
$var wire 1 J MemWrite_i $end
$var wire 1 M MemRead_i $end
$upscope $end
$scope module EXE_MEM $end
$var wire 32 (" alu_result_in [31:0] $end
$var wire 1 ' clk $end
$var wire 1 < regwrite_in $end
$var wire 5 )" rd_addr_in [4:0] $end
$var wire 1 K memwrite_in $end
$var wire 32 *" memwrite_addr_in [31:0] $end
$var wire 1 N memread_in $end
$var wire 1 T mem2reg_in $end
$var reg 32 +" alu_result_out [31:0] $end
$var reg 1 S mem2reg_out $end
$var reg 1 M memread_out $end
$var reg 32 ," memwrite_addr_out [31:0] $end
$var reg 1 J memwrite_out $end
$var reg 5 -" rd_addr_out [4:0] $end
$var reg 1 ; regwrite_out $end
$upscope $end
$scope module Forwarding $end
$var wire 5 ." rd_addr_mem [4:0] $end
$var wire 1 ; regwrite_mem $end
$var wire 5 /" rs2_addr_exe [4:0] $end
$var wire 5 0" rs1_addr_exe [4:0] $end
$var wire 1 : regwrite_wb $end
$var wire 5 1" rd_addr_wb [4:0] $end
$var wire 2 2" forwardB [1:0] $end
$var wire 2 3" forwardA [1:0] $end
$upscope $end
$scope module Hazard_Detection $end
$var wire 1 4" is_load_use $end
$var wire 1 F noop $end
$var wire 5 5" rs1_addr [4:0] $end
$var wire 5 6" rs2_addr [4:0] $end
$var wire 1 / stall $end
$var wire 5 7" rd_addr_exe [4:0] $end
$var wire 1 C pcwrite $end
$var wire 1 N memread_exe $end
$upscope $end
$scope module ID_EXE $end
$var wire 4 8" aluctrl_in [3:0] $end
$var wire 1 ` alusrc_in $end
$var wire 1 ' clk $end
$var wire 1 U mem2reg_in $end
$var wire 1 O memread_in $end
$var wire 1 L memwrite_in $end
$var wire 5 9" rd_addr_in [4:0] $end
$var wire 1 = regwrite_in $end
$var wire 5 :" rs1_addr_in [4:0] $end
$var wire 5 ;" rs2_addr_in [4:0] $end
$var wire 32 <" rs2_in [31:0] $end
$var wire 32 =" rs1_in [31:0] $end
$var wire 32 >" imm_in [31:0] $end
$var reg 4 ?" aluctrl_out [3:0] $end
$var reg 1 _ alusrc_out $end
$var reg 32 @" imm_out [31:0] $end
$var reg 1 T mem2reg_out $end
$var reg 1 N memread_out $end
$var reg 1 K memwrite_out $end
$var reg 5 A" rd_addr_out [4:0] $end
$var reg 1 < regwrite_out $end
$var reg 5 B" rs1_addr_out [4:0] $end
$var reg 32 C" rs1_out [31:0] $end
$var reg 5 D" rs2_addr_out [4:0] $end
$var reg 32 E" rs2_out [31:0] $end
$upscope $end
$scope module IF_ID $end
$var wire 1 ' clk $end
$var wire 1 ] flush $end
$var wire 1 / stall $end
$var wire 32 F" pc_in [31:0] $end
$var wire 32 G" instruction_in [31:0] $end
$var reg 32 H" instruction_out [31:0] $end
$var reg 32 I" pc_out [31:0] $end
$upscope $end
$scope module Imm_Gen $end
$var wire 32 J" instruction [31:0] $end
$var wire 7 K" opcode [6:0] $end
$var reg 32 L" imm [31:0] $end
$upscope $end
$scope module Instruction_Memory $end
$var wire 32 M" instr_o [31:0] $end
$var wire 32 N" addr_i [31:0] $end
$upscope $end
$scope module M2_ALU $end
$var wire 32 O" data2_i [31:0] $end
$var wire 1 _ select_i $end
$var wire 32 P" data_o [31:0] $end
$var wire 32 Q" data1_i [31:0] $end
$upscope $end
$scope module M2_PC $end
$var wire 32 R" data1_i [31:0] $end
$var wire 32 S" data2_i [31:0] $end
$var wire 1 ] select_i $end
$var wire 32 T" data_o [31:0] $end
$upscope $end
$scope module M2_WB $end
$var wire 1 R select_i $end
$var wire 32 U" data_o [31:0] $end
$var wire 32 V" data2_i [31:0] $end
$var wire 32 W" data1_i [31:0] $end
$upscope $end
$scope module M4_ForwardA $end
$var wire 32 X" data1_i [31:0] $end
$var wire 32 Y" data2_i [31:0] $end
$var wire 32 Z" data3_i [31:0] $end
$var wire 32 [" data4_i [31:0] $end
$var wire 2 \" select_i [1:0] $end
$var reg 32 ]" data_o [31:0] $end
$upscope $end
$scope module M4_ForwardB $end
$var wire 32 ^" data1_i [31:0] $end
$var wire 32 _" data2_i [31:0] $end
$var wire 32 `" data3_i [31:0] $end
$var wire 32 a" data4_i [31:0] $end
$var wire 2 b" select_i [1:0] $end
$var reg 32 c" data_o [31:0] $end
$upscope $end
$scope module MEM_WB $end
$var wire 32 d" alu_result_in [31:0] $end
$var wire 1 ' clk $end
$var wire 1 S mem2reg_in $end
$var wire 32 e" mem_result_in [31:0] $end
$var wire 5 f" rd_addr_in [4:0] $end
$var wire 1 ; regwrite_in $end
$var reg 32 g" alu_result_out [31:0] $end
$var reg 1 R mem2reg_out $end
$var reg 32 h" mem_result_out [31:0] $end
$var reg 5 i" rd_addr_out [4:0] $end
$var reg 1 : regwrite_out $end
$upscope $end
$scope module PC $end
$var wire 1 ' clk_i $end
$var wire 32 j" pc_i [31:0] $end
$var wire 1 ( rst_i $end
$var wire 1 k" start_i $end
$var reg 32 l" pc_o [31:0] $end
$upscope $end
$scope module Registers $end
$var wire 5 m" RDaddr_i [4:0] $end
$var wire 32 n" RDdata_i [31:0] $end
$var wire 5 o" RS1addr_i [4:0] $end
$var wire 5 p" RS2addr_i [4:0] $end
$var wire 1 : RegWrite_i $end
$var wire 1 ' clk_i $end
$var wire 32 q" RS2data_o [31:0] $end
$var wire 32 r" RS1data_o [31:0] $end
$upscope $end
$upscope $end
$upscope $end
$enddefinitions $end
#0
$dumpvars
b0 r"
b0 q"
b0 p"
b0 o"
b0 n"
b0 m"
b0 l"
0k"
b100 j"
b0 i"
b0 h"
b0 g"
b0 f"
b0 e"
b0 d"
b0 c"
b0 b"
b0 a"
b0 `"
b0 _"
b0 ^"
b0 ]"
b0 \"
b0 ["
b0 Z"
b0 Y"
b0 X"
b0 W"
b0 V"
b0 U"
b100 T"
b0 S"
b100 R"
b0 Q"
b0 P"
b0 O"
b0 N"
b1100010000000100000110011 M"
b0 L"
b0 K"
b0 J"
b0 I"
b0 H"
b1100010000000100000110011 G"
b0 F"
b0 E"
bx D"
b0 C"
bx B"
b0 A"
b0 @"
b0 ?"
b0 >"
b0 ="
b0 <"
b0 ;"
b0 :"
b0 9"
b1111 8"
b0 7"
b0 6"
b0 5"
04"
b0 3"
b0 2"
b0 1"
bx 0"
bx /"
b0 ."
b0 -"
bx ,"
b0 +"
b0 *"
b0 )"
b0 ("
b0 '"
bx &"
b0 %"
b1111 $"
b0 #"
b0 ""
bx !"
bx ~
b1111 }
b0 |
0{
0z
0y
0x
0w
b0 v
b0 u
b0 t
b0 s
b0 r
b0 q
b0 p
b0 o
b100 n
b100 m
b0 l
b0 k
b0 j
b0 i
b0 h
b0 g
b0 f
b0 e
b0 d
b0 c
b1111 b
b0 a
1`
0_
0^
0]
b0 \
b0 [
b0 Z
b0 Y
b1100010000000100000110011 X
b0 W
1V
0U
0T
0S
0R
b0 Q
b0 P
0O
0N
0M
0L
0K
0J
b100 I
b0 H
b100 G
0F
b0 E
b0 D
1C
b0 B
b0 A
b0 @
b0 ?
b0 >
0=
0<
0;
0:
b0 9
b0 8
bx 7
b0 6
b0 5
b0 4
bx 3
b0 2
b0 1
bx 0
0/
b0 .
b11 -
b100000 ,
b0 +
b0 *
0)
0(
0'
x&
bz %
bz $
x#
bz "
bz !
$end
#12
1k"
1)
1(
#25
1=
b11 b
b11 }
b11 $"
b11 8"
0`
b11 ~
b11 !"
b110000 H
b110000 t
b110000 S"
1z
b11111111111111111111111111101000 5
b11111111111111111111111111101000 p
b11111111111111111111111111101000 <"
b11111111111111111111111111101000 q"
b11000 Z
b11000 s
b11000 >"
b11000 L"
b110011 K"
b110011 |
b10000 B
b10000 9"
b11000 4
b11000 6"
b11000 ;"
b11000 p"
b10000 8
b10000 5"
b10000 :"
b10000 o"
b0xxxxxxxxxxxxxxxxxxxxxxxxxxxxxxx e
b0xxxxxxxxxxxxxxxxxxxxxxxxxxxxxxx l
b0xxxxxxxxxxxxxxxxxxxxxxxxxxxxxxx ("
b1100110000000100000110011 X
b1100110000000100000110011 G"
b1100110000000100000110011 M"
b1000 I
b1000 T"
b1000 j"
b1100010000000100000110011 W
b1100010000000100000110011 H"
b1100010000000100000110011 J"
b1111 a
b1111 k
b1111 ?"
1_
b0 3
b0 /"
b0 D"
b0 7
b0 0"
b0 B"
b0 0
b0 &"
b0 ,"
b1000 G
b1000 n
b1000 R"
b100 E
b100 o
b100 F"
b100 N"
b100 l"
b1 *
1'
#50
0'
#75
b1000 h
b11111111111111111111111111100111 5
b11111111111111111111111111100111 p
b11111111111111111111111111100111 <"
b11111111111111111111111111100111 q"
b11111111111111111111111111101000 e
b11111111111111111111111111101000 l
b11111111111111111111111111101000 ("
0V
b11111111111111111111111111101000 f
b11111111111111111111111111101000 i
b11111111111111111111111111101000 P"
b11111111111111111111111111101000 1
b11111111111111111111111111101000 *"
b11111111111111111111111111101000 Q"
b11111111111111111111111111101000 c"
b11001 Z
b11001 s
b11001 >"
b11001 L"
b11001 4
b11001 6"
b11001 ;"
b11001 p"
b1101010000000100000110011 X
b1101010000000100000110011 G"
b1101010000000100000110011 M"
b1100 I
b1100 T"
b1100 j"
b0xxxxxxxxxxxxxxxxxxxxxxxxxxxxxxx d
b0xxxxxxxxxxxxxxxxxxxxxxxxxxxxxxx '"
b0xxxxxxxxxxxxxxxxxxxxxxxxxxxxxxx +"
b0xxxxxxxxxxxxxxxxxxxxxxxxxxxxxxx Z"
b0xxxxxxxxxxxxxxxxxxxxxxxxxxxxxxx `"
b0xxxxxxxxxxxxxxxxxxxxxxxxxxxxxxx d"
1<
b11 a
b11 k
b11 ?"
0_
b11000 Y
b11000 @"
b11000 O"
b10000 A
b10000 )"
b10000 7"
b10000 A"
b11000 3
b11000 /"
b11000 D"
b10000 7
b10000 0"
b10000 B"
b11111111111111111111111111101000 2
b11111111111111111111111111101000 E"
b11111111111111111111111111101000 ^"
b110110 H
b110110 t
b110110 S"
b100 D
b100 r
b100 I"
b1100110000000100000110011 W
b1100110000000100000110011 H"
b1100110000000100000110011 J"
b1100 G
b1100 n
b1100 R"
b1000 E
b1000 o
b1000 F"
b1000 N"
b1000 l"
b10 *
1'
#100
0'
#125
b111 h
b11111111111111111111111111001111 e
b11111111111111111111111111001111 l
b11111111111111111111111111001111 ("
b11111111111111111111111111101000 g
b11111111111111111111111111101000 j
b11111111111111111111111111101000 ]"
b11111111111111111111111111100110 5
b11111111111111111111111111100110 p
b11111111111111111111111111100110 <"
b11111111111111111111111111100110 q"
b11111111111111111111111111100111 f
b11111111111111111111111111100111 i
b11111111111111111111111111100111 P"
b10 \
b10 3"
b10 \"
b11010 Z
b11010 s
b11010 >"
b11010 L"
b11010 4
b11010 6"
b11010 ;"
b11010 p"
b11111111111111111111111111100111 1
b11111111111111111111111111100111 *"
b11111111111111111111111111100111 Q"
b11111111111111111111111111100111 c"
b0xxxxxxxxxxxxxxxxxxxxxxxxxxxxxxx >
b0xxxxxxxxxxxxxxxxxxxxxxxxxxxxxxx U"
b0xxxxxxxxxxxxxxxxxxxxxxxxxxxxxxx Y"
b0xxxxxxxxxxxxxxxxxxxxxxxxxxxxxxx _"
b0xxxxxxxxxxxxxxxxxxxxxxxxxxxxxxx n"
b1110010000000100000110011 X
b1110010000000100000110011 G"
b1110010000000100000110011 M"
b10000 I
b10000 T"
b10000 j"
b111100 H
b111100 t
b111100 S"
b1000 D
b1000 r
b1000 I"
b1101010000000100000110011 W
b1101010000000100000110011 H"
b1101010000000100000110011 J"
b11001 Y
b11001 @"
b11001 O"
b11001 3
b11001 /"
b11001 D"
b11111111111111111111111111100111 2
b11111111111111111111111111100111 E"
b11111111111111111111111111100111 ^"
b11111111111111111111111111101000 d
b11111111111111111111111111101000 '"
b11111111111111111111111111101000 +"
b11111111111111111111111111101000 Z"
b11111111111111111111111111101000 `"
b11111111111111111111111111101000 d"
b10000 @
b10000 -"
b10000 ."
b10000 f"
b11111111111111111111111111101000 0
b11111111111111111111111111101000 &"
b11111111111111111111111111101000 ,"
1;
b0xxxxxxxxxxxxxxxxxxxxxxxxxxxxxxx c
b0xxxxxxxxxxxxxxxxxxxxxxxxxxxxxxx W"
b0xxxxxxxxxxxxxxxxxxxxxxxxxxxxxxx g"
b10000 G
b10000 n
b10000 R"
b1100 E
b1100 o
b1100 F"
b1100 N"
b1100 l"
b11 *
1'
#150
0'
#175
b110 h
b11111111111111111111111111101000 9
b11111111111111111111111111101000 q
b11111111111111111111111111101000 ="
b11111111111111111111111111101000 r"
b11111111111111111111111110110101 e
b11111111111111111111111110110101 l
b11111111111111111111111110110101 ("
b11111111111111111111111111100110 f
b11111111111111111111111111100110 i
b11111111111111111111111111100110 P"
b111000 5
b111000 p
b111000 <"
b111000 q"
b11111111111111111111111111101000 >
b11111111111111111111111111101000 U"
b11111111111111111111111111101000 Y"
b11111111111111111111111111101000 _"
b11111111111111111111111111101000 n"
b11111111111111111111111111001111 g
b11111111111111111111111111001111 j
b11111111111111111111111111001111 ]"
b11111111111111111111111111100110 1
b11111111111111111111111111100110 *"
b11111111111111111111111111100110 Q"
b11111111111111111111111111100110 c"
b11100 Z
b11100 s
b11100 >"
b11100 L"
b11100 4
b11100 6"
b11100 ;"
b11100 p"
b1000000000010110000100011 X
b1000000000010110000100011 G"
b1000000000010110000100011 M"
b10100 I
b10100 T"
b10100 j"
b11111111111111111111111111101000 c
b11111111111111111111111111101000 W"
b11111111111111111111111111101000 g"
b10000 ?
b10000 1"
b10000 i"
b10000 m"
1:
b11111111111111111111111111001111 d
b11111111111111111111111111001111 '"
b11111111111111111111111111001111 +"
b11111111111111111111111111001111 Z"
b11111111111111111111111111001111 `"
b11111111111111111111111111001111 d"
b11111111111111111111111111100111 0
b11111111111111111111111111100111 &"
b11111111111111111111111111100111 ,"
b11010 Y
b11010 @"
b11010 O"
b11010 3
b11010 /"
b11010 D"
b11111111111111111111111111100110 2
b11111111111111111111111111100110 E"
b11111111111111111111111111100110 ^"
b1000100 H
b1000100 t
b1000100 S"
b1100 D
b1100 r
b1100 I"
b1110010000000100000110011 W
b1110010000000100000110011 H"
b1110010000000100000110011 J"
b10100 G
b10100 n
b10100 R"
b10000 E
b10000 o
b10000 F"
b10000 N"
b10000 l"
b100 *
1'
#200
0'
#225
0=
1`
b0 ~
b0 !"
b11000 h
b11 b
b11 }
b11 $"
b11 8"
0z
1L
1{
b11111111111111111111111111001111 5
b11111111111111111111111111001111 p
b11111111111111111111111111001111 <"
b11111111111111111111111111001111 q"
b11111111111111111111111111101101 e
b11111111111111111111111111101101 l
b11111111111111111111111111101101 ("
b111000 f
b111000 i
b111000 P"
b0 9
b0 q
b0 ="
b0 r"
b11000 Z
b11000 s
b11000 >"
b11000 L"
b100011 K"
b10 u
b10 ""
b100011 |
b11000 B
b11000 9"
b10000 4
b10000 6"
b10000 ;"
b10000 p"
b0 8
b0 5"
b0 :"
b0 o"
b11111111111111111111111110110101 g
b11111111111111111111111110110101 j
b11111111111111111111111110110101 ]"
b111000 1
b111000 *"
b111000 Q"
b111000 c"
b11111111111111111111111111001111 >
b11111111111111111111111111001111 U"
b11111111111111111111111111001111 Y"
b11111111111111111111111111001111 _"
b11111111111111111111111111001111 n"
b1000001111011111000000010110011 X
b1000001111011111000000010110011 G"
b1000001111011111000000010110011 M"
b11000 I
b11000 T"
b11000 j"
b1000000 H
b1000000 t
b1000000 S"
b10000 D
b10000 r
b10000 I"
b1000000000010110000100011 W
b1000000000010110000100011 H"
b1000000000010110000100011 J"
b11100 Y
b11100 @"
b11100 O"
b11100 3
b11100 /"
b11100 D"
b111000 2
b111000 E"
b111000 ^"
b11111111111111111111111111101000 6
b11111111111111111111111111101000 C"
b11111111111111111111111111101000 X"
b11111111111111111111111110110101 d
b11111111111111111111111110110101 '"
b11111111111111111111111110110101 +"
b11111111111111111111111110110101 Z"
b11111111111111111111111110110101 `"
b11111111111111111111111110110101 d"
b11111111111111111111111111100110 0
b11111111111111111111111111100110 &"
b11111111111111111111111111100110 ,"
b11111111111111111111111111001111 c
b11111111111111111111111111001111 W"
b11111111111111111111111111001111 g"
b11000 G
b11000 n
b11000 R"
b10100 E
b10100 o
b10100 F"
b10100 N"
b10100 l"
b101 *
1'
#250
0'
#275
1=
0`
b100 b
b100 }
b100 $"
b100 8"
b11 ~
b11 !"
b111100 5
b111100 p
b111100 <"
b111100 q"
b10 [
b10 2"
b10 b"
b0 \
b0 3"
b0 \"
b11000 e
b11000 l
b11000 ("
1z
0L
0{
b111110 9
b111110 q
b111110 ="
b111110 r"
b11111111111111111111111110110101 >
b11111111111111111111111110110101 U"
b11111111111111111111111110110101 Y"
b11111111111111111111111110110101 _"
b11111111111111111111111110110101 n"
b11000 f
b11000 i
b11000 P"
b11111111111111111111111111101101 1
b11111111111111111111111111101101 *"
b11111111111111111111111111101101 Q"
b11111111111111111111111111101101 c"
b0 g
b0 j
b0 ]"
b10000011110 Z
b10000011110 s
b10000011110 >"
b10000011110 L"
b110011 K"
b100000 v
b100000 #"
b0 u
b0 ""
b110011 |
b1 B
b1 9"
b11110 4
b11110 6"
b11110 ;"
b11110 p"
b11111 8
b11111 5"
b11111 :"
b11111 o"
b1111000001000000100110011 X
b1111000001000000100110011 G"
b1111000001000000100110011 M"
b11100 I
b11100 T"
b11100 j"
b11111111111111111111111110110101 c
b11111111111111111111111110110101 W"
b11111111111111111111111110110101 g"
b11111111111111111111111111101101 d
b11111111111111111111111111101101 '"
b11111111111111111111111111101101 +"
b11111111111111111111111111101101 Z"
b11111111111111111111111111101101 `"
b11111111111111111111111111101101 d"
b111000 0
b111000 &"
b111000 ,"
0<
1K
1_
b11000 Y
b11000 @"
b11000 O"
b11000 A
b11000 )"
b11000 7"
b11000 A"
b10000 3
b10000 /"
b10000 D"
b0 7
b0 0"
b0 B"
b11111111111111111111111111001111 2
b11111111111111111111111111001111 E"
b11111111111111111111111111001111 ^"
b0 6
b0 C"
b0 X"
b100001010000 H
b100001010000 t
b100001010000 S"
b10100 D
b10100 r
b10100 I"
b1000001111011111000000010110011 W
b1000001111011111000000010110011 H"
b1000001111011111000000010110011 J"
b11100 G
b11100 n
b11100 R"
b11000 E
b11000 o
b11000 F"
b11000 N"
b11000 l"
b110 *
1'
#300
0'
#325
b11100 h
b111100 f
b111100 i
b111100 P"
b11 b
b11 }
b11 $"
b11 8"
b0 9
b0 q
b0 ="
b0 r"
b0 [
b0 2"
b0 b"
b11110 Z
b11110 s
b11110 >"
b11110 L"
b0 v
b0 #"
b10 B
b10 9"
b1 8
b1 5"
b1 :"
b1 o"
b10 e
b10 l
b10 ("
b111110 g
b111110 j
b111110 ]"
b111100 1
b111100 *"
b111100 Q"
b111100 c"
b11111111111111111111111111101101 >
b11111111111111111111111111101101 U"
b11111111111111111111111111101101 Y"
b11111111111111111111111111101101 _"
b11111111111111111111111111101101 n"
b1000000001000010101000110010011 X
b1000000001000010101000110010011 G"
b1000000001000010101000110010011 M"
b100000 I
b100000 T"
b100000 j"
b1010100 H
b1010100 t
b1010100 S"
b11000 D
b11000 r
b11000 I"
b1111000001000000100110011 W
b1111000001000000100110011 H"
b1111000001000000100110011 J"
1<
0K
b100 a
b100 k
b100 ?"
0_
b10000011110 Y
b10000011110 @"
b10000011110 O"
b1 A
b1 )"
b1 7"
b1 A"
b11110 3
b11110 /"
b11110 D"
b11111 7
b11111 0"
b11111 B"
b111100 2
b111100 E"
b111100 ^"
b111110 6
b111110 C"
b111110 X"
b11000 d
b11000 '"
b11000 +"
b11000 Z"
b11000 `"
b11000 d"
b11000 @
b11000 -"
b11000 ."
b11000 f"
b11111111111111111111111111101101 0
b11111111111111111111111111101101 &"
b11111111111111111111111111101101 ,"
0;
1J
b11111111111111111111111111101101 c
b11111111111111111111111111101101 W"
b11111111111111111111111111101101 g"
b100000 G
b100000 n
b100000 R"
b11100 E
b11100 o
b11100 F"
b11100 N"
b11100 l"
b111 *
1'
#350
0'
#375
1`
b0 ~
b0 !"
b10 \
b10 3"
b10 \"
b110 b
b110 }
b110 $"
b110 8"
0z
1x
b0 5
b0 p
b0 <"
b0 q"
b11000 >
b11000 U"
b11000 Y"
b11000 _"
b11000 n"
b111110 e
b111110 l
b111110 ("
b10 g
b10 j
b10 ]"
b10000000010 Z
b10000000010 s
b10000000010 >"
b10000000010 L"
b10011 K"
b100000 v
b100000 #"
b101 u
b101 ""
b10011 |
b11 B
b11 9"
b10 4
b10 6"
b10 ;"
b10 p"
b10 8
b10 5"
b10 :"
b10 o"
b1000000000011010010011 X
b1000000000011010010011 G"
b1000000000011010010011 M"
b100100 I
b100100 T"
b100100 j"
b11000 c
b11000 W"
b11000 g"
b11000 ?
b11000 1"
b11000 i"
b11000 m"
0:
b10 d
b10 '"
b10 +"
b10 Z"
b10 `"
b10 d"
b1 @
b1 -"
b1 ."
b1 f"
b111100 0
b111100 &"
b111100 ,"
1;
0J
b11 a
b11 k
b11 ?"
b11110 Y
b11110 @"
b11110 O"
b10 A
b10 )"
b10 7"
b10 A"
b1 7
b1 0"
b1 B"
b0 6
b0 C"
b0 X"
b100000100000 H
b100000100000 t
b100000100000 S"
b11100 D
b11100 r
b11100 I"
b1000000001000010101000110010011 W
b1000000001000010101000110010011 H"
b1000000001000010101000110010011 J"
b100100 G
b100100 n
b100100 R"
b100000 E
b100000 o
b100000 F"
b100000 N"
b100000 l"
b1000 *
1'
#400
0'
#425
b11 b
b11 }
b11 $"
b11 8"
b10 h
b10 [
b10 2"
b10 b"
b10 Z
b10 s
b10 >"
b10 L"
b0 v
b0 #"
b0 u
b0 ""
b1101 B
b1101 9"
b0 8
b0 5"
b0 :"
b0 o"
b1111 e
b1111 l
b1111 ("
b10000000010 f
b10000000010 i
b10000000010 P"
b111110 g
b111110 j
b111110 ]"
b111110 1
b111110 *"
b111110 Q"
b111110 c"
b10 >
b10 U"
b10 Y"
b10 _"
b10 n"
b110111110001011110110011 X
b110111110001011110110011 G"
b110111110001011110110011 M"
b101000 I
b101000 T"
b101000 j"
b100100 H
b100100 t
b100100 S"
b100000 D
b100000 r
b100000 I"
b1000000000011010010011 W
b1000000000011010010011 H"
b1000000000011010010011 J"
b110 a
b110 k
b110 ?"
1_
b10000000010 Y
b10000000010 @"
b10000000010 O"
b11 A
b11 )"
b11 7"
b11 A"
b10 3
b10 /"
b10 D"
b10 7
b10 0"
b10 B"
b0 2
b0 E"
b0 ^"
b111110 d
b111110 '"
b111110 +"
b111110 Z"
b111110 `"
b111110 d"
b10 @
b10 -"
b10 ."
b10 f"
b10 c
b10 W"
b10 g"
b1 ?
b1 1"
b1 i"
b1 m"
1:
b101000 G
b101000 n
b101000 R"
b100100 E
b100100 o
b100100 F"
b100100 N"
b100100 l"
b1001 *
1'
#450
0'
#475
0`
b10 b
b10 }
b10 $"
b10 8"
b11 ~
b11 !"
b1 [
b1 2"
b1 b"
b0 \
b0 3"
b0 \"
1z
0x
b111100 9
b111100 q
b111100 ="
b111100 r"
b111110 >
b111110 U"
b111110 Y"
b111110 _"
b111110 n"
b0 g
b0 j
b0 ]"
b111110 1
b111110 *"
b111110 Q"
b111110 c"
b10 e
b10 l
b10 ("
b10 f
b10 i
b10 P"
b1101 Z
b1101 s
b1101 >"
b1101 L"
b110011 K"
b1 u
b1 ""
b110011 |
b1111 B
b1111 9"
b1101 4
b1101 6"
b1101 ;"
b1101 p"
b11110 8
b11110 5"
b11110 :"
b11110 o"
b1100000010101000100011 X
b1100000010101000100011 G"
b1100000010101000100011 M"
b101100 I
b101100 T"
b101100 j"
b111110 c
b111110 W"
b111110 g"
b10 ?
b10 1"
b10 i"
b10 m"
b1111 d
b1111 '"
b1111 +"
b1111 Z"
b1111 `"
b1111 d"
b11 @
b11 -"
b11 ."
b11 f"
b111110 0
b111110 &"
b111110 ,"
b11 a
b11 k
b11 ?"
b10 Y
b10 @"
b10 O"
b1101 A
b1101 )"
b1101 7"
b1101 A"
b0 7
b0 0"
b0 B"
b111110 H
b111110 t
b111110 S"
b100100 D
b100100 r
b100100 I"
b110111110001011110110011 W
b110111110001011110110011 H"
b110111110001011110110011 J"
b101100 G
b101100 n
b101100 R"
b101000 E
b101000 o
b101000 F"
b101000 N"
b101000 l"
b1010 *
1'
#500
0'
