lab1/codes/CPU.vcd
$date
	Sat Dec 10 16:52:08 2022
$end
$version
	Icarus Verilog
$end
$timescale
	1s
$end
$scope module TestBench $end
$var reg 1 ! Clk $end
$var reg 1 " Reset $end
$var reg 1 # Start $end
$var integer 32 $ counter [31:0] $end
$var integer 32 % flush [31:0] $end
$var integer 32 & i [31:0] $end
$var integer 32 ' outfile [31:0] $end
$var integer 32 ( stall [31:0] $end
$scope module CPU $end
$var wire 1 ! clk_i $end
$var wire 1 " rst_i $end
$var wire 1 # start_i $end
$var wire 32 ) rs2_mem [31:0] $end
$var wire 32 * rs2_exe [31:0] $end
$var wire 5 + rs2_addr_exe [4:0] $end
$var wire 5 , rs2_addr [4:0] $end
$var wire 32 - rs2 [31:0] $end
$var wire 32 . rs1_exe [31:0] $end
$var wire 5 / rs1_addr_exe [4:0] $end
$var wire 5 0 rs1_addr [4:0] $end
$var wire 32 1 rs1 [31:0] $end
$var wire 1 2 regwrite_wb $end
$var wire 1 3 regwrite_mem $end
$var wire 1 4 regwrite_exe $end
$var wire 1 5 regwrite $end
$var wire 32 6 rd_data [31:0] $end
$var wire 5 7 rd_addr_wb [4:0] $end
$var wire 5 8 rd_addr_mem [4:0] $end
$var wire 5 9 rd_addr_exe [4:0] $end
$var wire 5 : rd_addr [4:0] $end
$var wire 32 ; pc [31:0] $end
$var wire 32 < next_pc [31:0] $end
$var wire 1 = memwrite_mem $end
$var wire 1 > memwrite_exe $end
$var wire 1 ? memwrite $end
$var wire 1 @ memread_mem $end
$var wire 1 A memread_exe $end
$var wire 1 B memread $end
$var wire 32 C mem_result_wb [31:0] $end
$var wire 32 D mem_result [31:0] $end
$var wire 1 E mem2reg_wb $end
$var wire 1 F mem2reg_mem $end
$var wire 1 G mem2reg_exe $end
$var wire 1 H mem2reg $end
$var wire 1 I is_zero $end
$var wire 32 J instruction_id [31:0] $end
$var wire 32 K instruction [31:0] $end
$var wire 32 L imm_exe [31:0] $end
$var wire 32 M imm [31:0] $end
$var wire 2 N forwardB [1:0] $end
$var wire 2 O forwardA [1:0] $end
$var wire 1 P alusrc_exe $end
$var wire 1 Q alusrc $end
$var wire 4 R aluctrl_exe [3:0] $end
$var wire 4 S aluctrl [3:0] $end
$var wire 32 T alu_result_wb [31:0] $end
$var wire 32 U alu_result_mem [31:0] $end
$var wire 32 V alu_result [31:0] $end
$var wire 32 W alu_op2_before_imm [31:0] $end
$var wire 32 X alu_op2 [31:0] $end
$var wire 32 Y alu_op1 [31:0] $end
$scope module ALU $end
$var wire 1 I zero $end
$var wire 5 Z shamt [4:0] $end
$var wire 32 [ op2 [31:0] $end
$var wire 32 \ op1 [31:0] $end
$var wire 4 ] aluctrl [3:0] $end
$var reg 32 ^ result [31:0] $end
$upscope $end
$scope module Add_PC $end
$var wire 32 _ data2_i [31:0] $end
$var wire 32 ` data_o [31:0] $end
$var wire 32 a data1_i [31:0] $end
$upscope $end
$scope module Control $end
$var wire 3 b funct3 [2:0] $end
$var wire 7 c funct7 [6:0] $end
$var wire 1 H mem2reg $end
$var wire 1 B memread $end
$var wire 1 ? memwrite $end
$var wire 7 d opcode [6:0] $end
$var wire 1 5 regwrite $end
$var wire 1 e is_store $end
$var wire 1 f is_r_type $end
$var wire 1 g is_load $end
$var wire 1 h is_i_type $end
$var wire 1 i is_beq $end
$var wire 1 Q alusrc $end
$var wire 4 j aluctrl [3:0] $end
$var reg 2 k aluop [1:0] $end
$scope module alucontrol $end
$var wire 2 l aluop [1:0] $end
$var wire 3 m funct3 [2:0] $end
$var wire 7 n funct7 [6:0] $end
$var reg 4 o aluctrl [3:0] $end
$upscope $end
$upscope $end
$scope module Data_Memory $end
$var wire 1 ! clk_i $end
$var wire 32 p data_o [31:0] $end
$var wire 32 q data_i [31:0] $end
$var wire 32 r addr_i [31:0] $end
$var wire 1 = MemWrite_i $end
$var wire 1 @ MemRead_i $end
$upscope $end
$scope module EXE_MEM $end
$var wire 32 s alu_result_in [31:0] $end
$var wire 1 ! clk $end
$var wire 1 4 regwrite_in $end
$var wire 5 t rd_addr_in [4:0] $end
$var wire 1 > memwrite_in $end
$var wire 32 u memwrite_addr_in [31:0] $end
$var wire 1 A memread_in $end
$var wire 1 G mem2reg_in $end
$var reg 32 v alu_result_out [31:0] $end
$var reg 1 F mem2reg_out $end
$var reg 1 @ memread_out $end
$var reg 32 w memwrite_addr_out [31:0] $end
$var reg 1 = memwrite_out $end
$var reg 5 x rd_addr_out [4:0] $end
$var reg 1 3 regwrite_out $end
$upscope $end
$scope module Forwarding $end
$var wire 32 y rd_addr_mem [31:0] $end
$var wire 32 z rd_addr_wb [31:0] $end
$var wire 1 3 regwrite_mem $end
$var wire 32 { rs1_addr_exe [31:0] $end
$var wire 32 | rs2_addr_exe [31:0] $end
$var wire 1 2 regwrite_wb $end
$var wire 2 } forwardB [1:0] $end
$var wire 2 ~ forwardA [1:0] $end
$upscope $end
$scope module ID_EXE $end
$var wire 4 !" aluctrl_in [3:0] $end
$var wire 1 Q alusrc_in $end
$var wire 1 ! clk $end
$var wire 1 H mem2reg_in $end
$var wire 1 B memread_in $end
$var wire 1 ? memwrite_in $end
$var wire 5 "" rd_addr_in [4:0] $end
$var wire 1 5 regwrite_in $end
$var wire 5 #" rs1_addr_in [4:0] $end
$var wire 5 $" rs2_addr_in [4:0] $end
$var wire 32 %" rs2_in [31:0] $end
$var wire 32 &" rs1_in [31:0] $end
$var wire 32 '" imm_in [31:0] $end
$var reg 4 (" aluctrl_out [3:0] $end
$var reg 1 P alusrc_out $end
$var reg 32 )" imm_out [31:0] $end
$var reg 1 G mem2reg_out $end
$var reg 1 A memread_out $end
$var reg 1 > memwrite_out $end
$var reg 5 *" rd_addr_out [4:0] $end
$var reg 1 4 regwrite_out $end
$var reg 5 +" rs1_addr_out [4:0] $end
$var reg 32 ," rs1_out [31:0] $end
$var reg 5 -" rs2_addr_out [4:0] $end
$var reg 32 ." rs2_out [31:0] $end
$upscope $end
$scope module IF_ID $end
$var wire 1 ! clk $end
$var wire 32 /" instruction_in [31:0] $end
$var reg 32 0" instruction_out [31:0] $end
$upscope $end
$scope module Imm_Gen $end
$var wire 32 1" instruction [31:0] $end
$var wire 7 2" opcode [6:0] $end
$var reg 32 3" imm [31:0] $end
$upscope $end
$scope module Instruction_Memory $end
$var wire 32 4" instr_o [31:0] $end
$var wire 32 5" addr_i [31:0] $end
$upscope $end
$scope module M2_ALU $end
$var wire 32 6" data2_i [31:0] $end
$var wire 1 P select_i $end
$var wire 32 7" data_o [31:0] $end
$var wire 32 8" data1_i [31:0] $end
$upscope $end
$scope module M2_WB $end
$var wire 1 E select_i $end
$var wire 32 9" data_o [31:0] $end
$var wire 32 :" data2_i [31:0] $end
$var wire 32 ;" data1_i [31:0] $end
$upscope $end
$scope module M4_ForwardA $end
$var wire 32 <" data1_i [31:0] $end
$var wire 32 =" data2_i [31:0] $end
$var wire 32 >" data3_i [31:0] $end
$var wire 32 ?" data4_i [31:0] $end
$var wire 2 @" select_i [1:0] $end
$var reg 32 A" data_o [31:0] $end
$upscope $end
$scope module M4_ForwardB $end
$var wire 32 B" data1_i [31:0] $end
$var wire 32 C" data2_i [31:0] $end
$var wire 32 D" data3_i [31:0] $end
$var wire 32 E" data4_i [31:0] $end
$var wire 2 F" select_i [1:0] $end
$var reg 32 G" data_o [31:0] $end
$upscope $end
$scope module MEM_WB $end
$var wire 32 H" alu_result_in [31:0] $end
$var wire 1 ! clk $end
$var wire 1 F mem2reg_in $end
$var wire 32 I" mem_result_in [31:0] $end
$var wire 5 J" rd_addr_in [4:0] $end
$var wire 1 3 regwrite_in $end
$var reg 32 K" alu_result_out [31:0] $end
$var reg 1 E mem2reg_out $end
$var reg 32 L" mem_result_out [31:0] $end
$var reg 5 M" rd_addr_out [4:0] $end
$var reg 1 2 regwrite_out $end
$upscope $end
$scope module PC $end
$var wire 1 ! clk_i $end
$var wire 32 N" pc_i [31:0] $end
$var wire 1 " rst_i $end
$var wire 1 # start_i $end
$var reg 32 O" pc_o [31:0] $end
$upscope $end
$scope module Registers $end
$var wire 5 P" RDaddr_i [4:0] $end
$var wire 32 Q" RDdata_i [31:0] $end
$var wire 5 R" RS1addr_i [4:0] $end
$var wire 5 S" RS2addr_i [4:0] $end
$var wire 1 2 RegWrite_i $end
$var wire 1 ! clk_i $end
$var wire 32 T" RS2data_o [31:0] $end
$var wire 32 U" RS1data_o [31:0] $end
$upscope $end
$upscope $end
$upscope $end
$enddefinitions $end
#0
$dumpvars
b0 U"
b0 T"
b0 S"
b0 R"
b0 Q"
b0 P"
b0 O"
b100 N"
b0 M"
b0 L"
b0 K"
b0 J"
b0 I"
b0 H"
b0 G"
b0 F"
b0 E"
b0 D"
b0 C"
b0 B"
b0 A"
b0 @"
b0 ?"
b0 >"
b0 ="
b0 <"
b0 ;"
b0 :"
b0 9"
b0 8"
b0 7"
b0 6"
b0 5"
b1100010000000100000110011 4"
b0 3"
b0 2"
b0 1"
b0 0"
b1100010000000100000110011 /"
b0 ."
bx -"
b0 ,"
bx +"
b0 *"
b0 )"
b0 ("
b0 '"
b0 &"
b0 %"
b0 $"
b0 #"
b0 ""
b1111 !"
b0 ~
b0 }
b0xxxxx |
b0xxxxx {
b0 z
b0 y
b0 x
bx w
b0 v
b0 u
b0 t
b0 s
b0 r
bx q
b0 p
b1111 o
b0 n
b0 m
bx l
bx k
b1111 j
0i
0h
0g
0f
0e
b0 d
b0 c
b0 b
b0 a
b100 `
b100 _
b0 ^
b0 ]
b0 \
b0 [
b0 Z
b0 Y
b0 X
b0 W
b0 V
b0 U
b0 T
b1111 S
b0 R
1Q
0P
b0 O
b0 N
b0 M
b0 L
b1100010000000100000110011 K
b0 J
1I
0H
0G
0F
0E
b0 D
b0 C
0B
0A
0@
0?
0>
0=
b100 <
b0 ;
b0 :
b0 9
b0 8
b0 7
b0 6
05
04
03
02
b0 1
b0 0
bx /
b0 .
b0 -
b0 ,
bx +
b0 *
bx )
b0 (
b11 '
b100000 &
b0 %
b0 $
0#
0"
0!
$end
#12
1#
1"
#25
0Q
15
b11 S
b11 j
b11 o
b11 !"
b11 k
b11 l
b11111111111111111111111111101000 -
b11111111111111111111111111101000 %"
b11111111111111111111111111101000 T"
b11000 M
b11000 '"
b11000 3"
b110011 2"
1f
b110011 d
b10000 :
b10000 ""
b11000 ,
b11000 $"
b11000 S"
b10000 0
b10000 #"
b10000 R"
b0xxxxxxxxxxxxxxxxxxxxxxxxxxxxxxx V
b0xxxxxxxxxxxxxxxxxxxxxxxxxxxxxxx ^
b0xxxxxxxxxxxxxxxxxxxxxxxxxxxxxxx s
b1100110000000100000110011 K
b1100110000000100000110011 /"
b1100110000000100000110011 4"
b1100010000000100000110011 J
b1100010000000100000110011 0"
b1100010000000100000110011 1"
b1111 R
b1111 ]
b1111 ("
1P
b0 |
b0 +
b0 -"
b0 {
b0 /
b0 +"
b0 )
b0 q
b0 w
b1000 <
b1000 `
b1000 N"
b100 ;
b100 a
b100 5"
b100 O"
b1 $
1!
#50
0!
#75
b1000 Z
b11111111111111111111111111100111 -
b11111111111111111111111111100111 %"
b11111111111111111111111111100111 T"
b11111111111111111111111111101000 V
b11111111111111111111111111101000 ^
b11111111111111111111111111101000 s
0I
b11111111111111111111111111101000 X
b11111111111111111111111111101000 [
b11111111111111111111111111101000 7"
b11111111111111111111111111101000 W
b11111111111111111111111111101000 8"
b11111111111111111111111111101000 G"
b11001 M
b11001 '"
b11001 3"
b11001 ,
b11001 $"
b11001 S"
b1101010000000100000110011 K
b1101010000000100000110011 /"
b1101010000000100000110011 4"
b0xxxxxxxxxxxxxxxxxxxxxxxxxxxxxxx U
b0xxxxxxxxxxxxxxxxxxxxxxxxxxxxxxx r
b0xxxxxxxxxxxxxxxxxxxxxxxxxxxxxxx v
b0xxxxxxxxxxxxxxxxxxxxxxxxxxxxxxx >"
b0xxxxxxxxxxxxxxxxxxxxxxxxxxxxxxx D"
b0xxxxxxxxxxxxxxxxxxxxxxxxxxxxxxx H"
14
b11 R
b11 ]
b11 ("
0P
b11000 L
b11000 )"
b11000 6"
b10000 9
b10000 t
b10000 *"
b11000 |
b11000 +
b11000 -"
b10000 {
b10000 /
b10000 +"
b11111111111111111111111111101000 *
b11111111111111111111111111101000 u
b11111111111111111111111111101000 ."
b11111111111111111111111111101000 B"
b1100110000000100000110011 J
b1100110000000100000110011 0"
b1100110000000100000110011 1"
b1100 <
b1100 `
b1100 N"
b1000 ;
b1000 a
b1000 5"
b1000 O"
b10 $
1!
#100
0!
#125
b111 Z
b11111111111111111111111111001111 V
b11111111111111111111111111001111 ^
b11111111111111111111111111001111 s
b11111111111111111111111111101000 Y
b11111111111111111111111111101000 \
b11111111111111111111111111101000 A"
b11111111111111111111111111100110 -
b11111111111111111111111111100110 %"
b11111111111111111111111111100110 T"
b11111111111111111111111111100111 X
b11111111111111111111111111100111 [
b11111111111111111111111111100111 7"
b10 O
b10 ~
b10 @"
b11010 M
b11010 '"
b11010 3"
b11010 ,
b11010 $"
b11010 S"
b11111111111111111111111111100111 W
b11111111111111111111111111100111 8"
b11111111111111111111111111100111 G"
b0xxxxxxxxxxxxxxxxxxxxxxxxxxxxxxx 6
b0xxxxxxxxxxxxxxxxxxxxxxxxxxxxxxx 9"
b0xxxxxxxxxxxxxxxxxxxxxxxxxxxxxxx ="
b0xxxxxxxxxxxxxxxxxxxxxxxxxxxxxxx C"
b0xxxxxxxxxxxxxxxxxxxxxxxxxxxxxxx Q"
b1110010000000100000110011 K
b1110010000000100000110011 /"
b1110010000000100000110011 4"
b1101010000000100000110011 J
b1101010000000100000110011 0"
b1101010000000100000110011 1"
b11001 L
b11001 )"
b11001 6"
b11001 |
b11001 +
b11001 -"
b11111111111111111111111111100111 *
b11111111111111111111111111100111 u
b11111111111111111111111111100111 ."
b11111111111111111111111111100111 B"
b11111111111111111111111111101000 U
b11111111111111111111111111101000 r
b11111111111111111111111111101000 v
b11111111111111111111111111101000 >"
b11111111111111111111111111101000 D"
b11111111111111111111111111101000 H"
b10000 y
b10000 8
b10000 x
b10000 J"
b11111111111111111111111111101000 )
b11111111111111111111111111101000 q
b11111111111111111111111111101000 w
13
b0xxxxxxxxxxxxxxxxxxxxxxxxxxxxxxx T
b0xxxxxxxxxxxxxxxxxxxxxxxxxxxxxxx ;"
b0xxxxxxxxxxxxxxxxxxxxxxxxxxxxxxx K"
b10000 <
b10000 `
b10000 N"
b1100 ;
b1100 a
b1100 5"
b1100 O"
b11 $
1!
#150
0!
#175
b110 Z
b11111111111111111111111111101000 1
b11111111111111111111111111101000 &"
b11111111111111111111111111101000 U"
b11111111111111111111111110110101 V
b11111111111111111111111110110101 ^
b11111111111111111111111110110101 s
b11111111111111111111111111100110 X
b11111111111111111111111111100110 [
b11111111111111111111111111100110 7"
b111000 -
b111000 %"
b111000 T"
b11111111111111111111111111101000 6
b11111111111111111111111111101000 9"
b11111111111111111111111111101000 ="
b11111111111111111111111111101000 C"
b11111111111111111111111111101000 Q"
b11111111111111111111111111001111 Y
b11111111111111111111111111001111 \
b11111111111111111111111111001111 A"
b11111111111111111111111111100110 W
b11111111111111111111111111100110 8"
b11111111111111111111111111100110 G"
b11100 M
b11100 '"
b11100 3"
b11100 ,
b11100 $"
b11100 S"
b1000000000010110000100011 K
b1000000000010110000100011 /"
b1000000000010110000100011 4"
b11111111111111111111111111101000 T
b11111111111111111111111111101000 ;"
b11111111111111111111111111101000 K"
b10000 z
b10000 7
b10000 M"
b10000 P"
12
b11111111111111111111111111001111 U
b11111111111111111111111111001111 r
b11111111111111111111111111001111 v
b11111111111111111111111111001111 >"
b11111111111111111111111111001111 D"
b11111111111111111111111111001111 H"
b11111111111111111111111111100111 )
b11111111111111111111111111100111 q
b11111111111111111111111111100111 w
b11010 L
b11010 )"
b11010 6"
b11010 |
b11010 +
b11010 -"
b11111111111111111111111111100110 *
b11111111111111111111111111100110 u
b11111111111111111111111111100110 ."
b11111111111111111111111111100110 B"
b1110010000000100000110011 J
b1110010000000100000110011 0"
b1110010000000100000110011 1"
b10100 <
b10100 `
b10100 N"
b10000 ;
b10000 a
b10000 5"
b10000 O"
b100 $
1!
#200
0!
#225
1Q
05
b11000 Z
b0 k
b0 l
b11111111111111111111111111001111 -
b11111111111111111111111111001111 %"
b11111111111111111111111111001111 T"
b11111111111111111111111111101101 V
b11111111111111111111111111101101 ^
b11111111111111111111111111101101 s
b111000 X
b111000 [
b111000 7"
b0 1
b0 &"
b0 U"
b11000 M
b11000 '"
b11000 3"
b100011 2"
b10 b
b10 m
0f
1?
1e
b100011 d
b11000 :
b11000 ""
b10000 ,
b10000 $"
b10000 S"
b0 0
b0 #"
b0 R"
b11111111111111111111111110110101 Y
b11111111111111111111111110110101 \
b11111111111111111111111110110101 A"
b111000 W
b111000 8"
b111000 G"
b11111111111111111111111111001111 6
b11111111111111111111111111001111 9"
b11111111111111111111111111001111 ="
b11111111111111111111111111001111 C"
b11111111111111111111111111001111 Q"
b1000001111011111000000010110011 K
b1000001111011111000000010110011 /"
b1000001111011111000000010110011 4"
b1000000000010110000100011 J
b1000000000010110000100011 0"
b1000000000010110000100011 1"
b11100 L
b11100 )"
b11100 6"
b11100 |
b11100 +
b11100 -"
b111000 *
b111000 u
b111000 ."
b111000 B"
b11111111111111111111111111101000 .
b11111111111111111111111111101000 ,"
b11111111111111111111111111101000 <"
b11111111111111111111111110110101 U
b11111111111111111111111110110101 r
b11111111111111111111111110110101 v
b11111111111111111111111110110101 >"
b11111111111111111111111110110101 D"
b11111111111111111111111110110101 H"
b11111111111111111111111111100110 )
b11111111111111111111111111100110 q
b11111111111111111111111111100110 w
b11111111111111111111111111001111 T
b11111111111111111111111111001111 ;"
b11111111111111111111111111001111 K"
b11000 <
b11000 `
b11000 N"
b10100 ;
b10100 a
b10100 5"
b10100 O"
b101 $
1!
#250
0!
#275
0Q
15
b111100 -
b111100 %"
b111100 T"
b10 N
b10 }
b10 F"
b0 O
b0 ~
b0 @"
b11000 V
b11000 ^
b11000 s
b100 S
b100 j
b100 o
b100 !"
b11 k
b11 l
b111110 1
b111110 &"
b111110 U"
b11111111111111111111111110110101 6
b11111111111111111111111110110101 9"
b11111111111111111111111110110101 ="
b11111111111111111111111110110101 C"
b11111111111111111111111110110101 Q"
b11000 X
b11000 [
b11000 7"
b11111111111111111111111111101101 W
b11111111111111111111111111101101 8"
b11111111111111111111111111101101 G"
b0 Y
b0 \
b0 A"
b10000011110 M
b10000011110 '"
b10000011110 3"
b110011 2"
b100000 c
b100000 n
b0 b
b0 m
1f
0?
0e
b110011 d
b1 :
b1 ""
b11110 ,
b11110 $"
b11110 S"
b11111 0
b11111 #"
b11111 R"
b1111000001000000100110011 K
b1111000001000000100110011 /"
b1111000001000000100110011 4"
b11111111111111111111111110110101 T
b11111111111111111111111110110101 ;"
b11111111111111111111111110110101 K"
b11111111111111111111111111101101 U
b11111111111111111111111111101101 r
b11111111111111111111111111101101 v
b11111111111111111111111111101101 >"
b11111111111111111111111111101101 D"
b11111111111111111111111111101101 H"
b111000 )
b111000 q
b111000 w
04
1>
1P
b11000 L
b11000 )"
b11000 6"
b11000 9
b11000 t
b11000 *"
b10000 |
b10000 +
b10000 -"
b0 {
b0 /
b0 +"
b11111111111111111111111111001111 *
b11111111111111111111111111001111 u
b11111111111111111111111111001111 ."
b11111111111111111111111111001111 B"
b0 .
b0 ,"
b0 <"
b1000001111011111000000010110011 J
b1000001111011111000000010110011 0"
b1000001111011111000000010110011 1"
b11100 <
b11100 `
b11100 N"
b11000 ;
b11000 a
b11000 5"
b11000 O"
b110 $
1!
#300
0!
#325
b11100 Z
b111100 X
b111100 [
b111100 7"
b11 S
b11 j
b11 o
b11 !"
b0 1
b0 &"
b0 U"
b0 N
b0 }
b0 F"
b11110 M
b11110 '"
b11110 3"
b0 c
b0 n
b10 :
b10 ""
b1 0
b1 #"
b1 R"
b10 V
b10 ^
b10 s
b111110 Y
b111110 \
b111110 A"
b111100 W
b111100 8"
b111100 G"
b11111111111111111111111111101101 6
b11111111111111111111111111101101 9"
b11111111111111111111111111101101 ="
b11111111111111111111111111101101 C"
b11111111111111111111111111101101 Q"
b1000000001000010101000110010011 K
b1000000001000010101000110010011 /"
b1000000001000010101000110010011 4"
b1111000001000000100110011 J
b1111000001000000100110011 0"
b1111000001000000100110011 1"
14
0>
b100 R
b100 ]
b100 ("
0P
b10000011110 L
b10000011110 )"
b10000011110 6"
b1 9
b1 t
b1 *"
b11110 |
b11110 +
b11110 -"
b11111 {
b11111 /
b11111 +"
b111100 *
b111100 u
b111100 ."
b111100 B"
b111110 .
b111110 ,"
b111110 <"
b11000 U
b11000 r
b11000 v
b11000 >"
b11000 D"
b11000 H"
b11000 y
b11000 8
b11000 x
b11000 J"
b11111111111111111111111111001111 )
b11111111111111111111111111001111 q
b11111111111111111111111111001111 w
03
1=
b11111111111111111111111111101101 T
b11111111111111111111111111101101 ;"
b11111111111111111111111111101101 K"
b100000 <
b100000 `
b100000 N"
b11100 ;
b11100 a
b11100 5"
b11100 O"
b111 $
1!
#350
0!
#375
1Q
b10 O
b10 ~
b10 @"
b110 S
b110 j
b110 o
b110 !"
b0 k
b0 l
b0 -
b0 %"
b0 T"
b11000 6
b11000 9"
b11000 ="
b11000 C"
b11000 Q"
b111110 V
b111110 ^
b111110 s
b10 Y
b10 \
b10 A"
b10000000010 M
b10000000010 '"
b10000000010 3"
b10011 2"
b100000 c
b100000 n
b101 b
b101 m
0f
1h
b10011 d
b11 :
b11 ""
b10 ,
b10 $"
b10 S"
b10 0
b10 #"
b10 R"
b1000000000011010010011 K
b1000000000011010010011 /"
b1000000000011010010011 4"
b11000 T
b11000 ;"
b11000 K"
b11000 z
b11000 7
b11000 M"
b11000 P"
02
b10 U
b10 r
b10 v
b10 >"
b10 D"
b10 H"
b1 y
b1 8
b1 x
b1 J"
b111100 )
b111100 q
b111100 w
13
0=
b11 R
b11 ]
b11 ("
b11110 L
b11110 )"
b11110 6"
b10 9
b10 t
b10 *"
b1 {
b1 /
b1 +"
b0 .
b0 ,"
b0 <"
b1000000001000010101000110010011 J
b1000000001000010101000110010011 0"
b1000000001000010101000110010011 1"
b100100 <
b100100 `
b100100 N"
b100000 ;
b100000 a
b100000 5"
b100000 O"
b1000 $
1!
#400
0!
#425
b11 S
b11 j
b11 o
b11 !"
b10 Z
b10 N
b10 }
b10 F"
b10 M
b10 '"
b10 3"
b0 c
b0 n
b0 b
b0 m
b1101 :
b1101 ""
b0 0
b0 #"
b0 R"
b1111 V
b1111 ^
b1111 s
b10000000010 X
b10000000010 [
b10000000010 7"
b111110 Y
b111110 \
b111110 A"
b111110 W
b111110 8"
b111110 G"
b10 6
b10 9"
b10 ="
b10 C"
b10 Q"
b110111110001011110110011 K
b110111110001011110110011 /"
b110111110001011110110011 4"
b1000000000011010010011 J
b1000000000011010010011 0"
b1000000000011010010011 1"
b110 R
b110 ]
b110 ("
1P
b10000000010 L
b10000000010 )"
b10000000010 6"
b11 9
b11 t
b11 *"
b10 |
b10 +
b10 -"
b10 {
b10 /
b10 +"
b0 *
b0 u
b0 ."
b0 B"
b111110 U
b111110 r
b111110 v
b111110 >"
b111110 D"
b111110 H"
b10 y
b10 8
b10 x
b10 J"
b10 T
b10 ;"
b10 K"
b1 z
b1 7
b1 M"
b1 P"
12
b101000 <
b101000 `
b101000 N"
b100100 ;
b100100 a
b100100 5"
b100100 O"
b1001 $
1!
#450
0!
#475
0Q
b1 N
b1 }
b1 F"
b0 O
b0 ~
b0 @"
b10 S
b10 j
b10 o
b10 !"
b11 k
b11 l
b111100 1
b111100 &"
b111100 U"
b111110 6
b111110 9"
b111110 ="
b111110 C"
b111110 Q"
b0 Y
b0 \
b0 A"
b111110 W
b111110 8"
b111110 G"
b10 V
b10 ^
b10 s
b10 X
b10 [
b10 7"
b1101 M
b1101 '"
b1101 3"
b110011 2"
b1 b
b1 m
1f
0h
b110011 d
b1111 :
b1111 ""
b1101 ,
b1101 $"
b1101 S"
b11110 0
b11110 #"
b11110 R"
b1100000010101000100011 K
b1100000010101000100011 /"
b1100000010101000100011 4"
b111110 T
b111110 ;"
b111110 K"
b10 z
b10 7
b10 M"
b10 P"
b1111 U
b1111 r
b1111 v
b1111 >"
b1111 D"
b1111 H"
b11 y
b11 8
b11 x
b11 J"
b0 )
b0 q
b0 w
b11 R
b11 ]
b11 ("
b10 L
b10 )"
b10 6"
b1101 9
b1101 t
b1101 *"
b0 {
b0 /
b0 +"
b110111110001011110110011 J
b110111110001011110110011 0"
b110111110001011110110011 1"
b101100 <
b101100 `
b101100 N"
b101000 ;
b101000 a
b101000 5"
b101000 O"
b1010 $
1!
#500
0!
#525
1Q
05
b1111 -
b1111 %"
b1111 T"
b11 S
b11 j
b11 o
b11 !"
b0 k
b0 l
b0 1
b0 &"
b0 U"
b10 Z
b10 N
b10 }
b10 F"
b10100 M
b10100 '"
b10100 3"
b100011 2"
b10 b
b10 m
0f
1?
1e
b100011 d
b10100 :
b10100 ""
b11 ,
b11 $"
b11 S"
b0 0
b0 #"
b0 R"
b11110000 V
b11110000 ^
b11110000 s
b10 X
b10 [
b10 7"
b111100 Y
b111100 \
b111100 A"
b10 W
b10 8"
b10 G"
b1111 6
b1111 9"
b1111 ="
b1111 C"
b1111 Q"
b10101000000011 K
b10101000000011 /"
b10101000000011 4"
b1100000010101000100011 J
b1100000010101000100011 0"
b1100000010101000100011 1"
b10 R
b10 ]
b10 ("
0P
b1101 L
b1101 )"
b1101 6"
b1111 9
b1111 t
b1111 *"
b1101 |
b1101 +
b1101 -"
b11110 {
b11110 /
b11110 +"
b111100 .
b111100 ,"
b111100 <"
b10 U
b10 r
b10 v
b10 >"
b10 D"
b10 H"
b1101 y
b1101 8
b1101 x
b1101 J"
b1111 T
b1111 ;"
b1111 K"
b11 z
b11 7
b11 M"
b11 P"
b110000 <
b110000 `
b110000 N"
b101100 ;
b101100 a
b101100 5"
b101100 O"
b1011 $
1!
#550
0!
#575
b0 -
b0 %"
b0 T"
b10100 Z
b0 N
b0 }
b0 F"
15
b10 6
b10 9"
b10 ="
b10 C"
b10 Q"
b10100 V
b10100 ^
b10100 s
b10100 X
b10100 [
b10100 7"
b1111 W
b1111 8"
b1111 G"
b0 Y
b0 \
b0 A"
b0 M
b0 '"
b0 3"
b11 2"
1H
1B
1g
0?
0e
b11 d
b0 ,
b0 $"
b0 S"
b10000000010101010000011 K
b10000000010101010000011 /"
b10000000010101010000011 4"
b10 T
b10 ;"
b10 K"
b1101 z
b1101 7
b1101 M"
b1101 P"
b11110000 U
b11110000 r
b11110000 v
b11110000 >"
b11110000 D"
b11110000 H"
b1111 y
b1111 8
b1111 x
b1111 J"
04
1>
b11 R
b11 ]
b11 ("
1P
b10100 L
b10100 )"
b10100 6"
b10100 9
b10100 t
b10100 *"
b11 |
b11 +
b11 -"
b0 {
b0 /
b0 +"
b1111 *
b1111 u
b1111 ."
b1111 B"
b0 .
b0 ,"
b0 <"
b10101000000011 J
b10101000000011 0"
b10101000000011 1"
b110100 <
b110100 `
b110100 N"
b110000 ;
b110000 a
b110000 5"
b110000 O"
b1100 $
1!
#600
0!
#625
b0 Z
b0 V
b0 ^
b0 s
b100 M
b100 '"
b100 3"
b10101 :
b10101 ""
b100 ,
b100 $"
b100 S"
1I
b0 X
b0 [
b0 7"
b0 W
b0 8"
b0 G"
b11110000 6
b11110000 9"
b11110000 ="
b11110000 C"
b11110000 Q"
b100000000010101100000011 K
b100000000010101100000011 /"
b100000000010101100000011 4"
b10000000010101010000011 J
b10000000010101010000011 0"
b10000000010101010000011 1"
14
1G
1A
0>
b0 L
b0 )"
b0 6"
b0 |
b0 +
b0 -"
b0 *
b0 u
b0 ."
b0 B"
b10100 U
b10100 r
b10100 v
b10100 >"
b10100 D"
b10100 H"
b10100 y
b10100 8
b10100 x
b10100 J"
b1111 )
b1111 q
b1111 w
03
1=
b11110000 T
b11110000 ;"
b11110000 K"
b1111 z
b1111 7
b1111 M"
b1111 P"
b111000 <
b111000 `
b111000 N"
b110100 ;
b110100 a
b110100 5"
b110100 O"
b1101 $
1!
#650
0!
#675
b100 Z
b100 V
b100 ^
b100 s
b10100 6
b10100 9"
b10100 ="
b10100 C"
b10100 Q"
b101 D
b101 p
b101 I"
0I
b100 X
b100 [
b100 7"
b1000 M
b1000 '"
b1000 3"
b10110 :
b10110 ""
b1000 ,
b1000 $"
b1000 S"
b0 K
b0 /"
b0 4"
b10100 T
b10100 ;"
b10100 K"
b10100 z
b10100 7
b10100 M"
b10100 P"
02
b0 U
b0 r
b0 v
b0 >"
b0 D"
b0 H"
b0 )
b0 q
b0 w
13
1F
0=
1@
b100 L
b100 )"
b100 6"
b10101 9
b10101 t
b10101 *"
b100 |
b100 +
b100 -"
b100000000010101100000011 J
b100000000010101100000011 0"
b100000000010101100000011 1"
b111100 <
b111100 `
b111100 N"
b111000 ;
b111000 a
b111000 5"
b111000 O"
b1110 $
1!
#700
0!
