lab1/codes/CPU.vcd
$date
	Sun Dec 11 15:57:36 2022
$end
$version
	Icarus Verilog
$end
$timescale
	1s
$end
$scope module Ander $end
$var wire 32 ! data1_i [31:0] $end
$var wire 32 " data2_i [31:0] $end
$var wire 1 # data_o $end
$upscope $end
$scope module Equaler $end
$var wire 32 $ data1_i [31:0] $end
$var wire 32 % data2_i [31:0] $end
$var wire 1 & data_o $end
$upscope $end
$scope module TestBench $end
$var reg 1 ' Clk $end
$var reg 1 ( Reset $end
$var reg 1 ) Start $end
$var integer 32 * counter [31:0] $end
$var integer 32 + flush [31:0] $end
$var integer 32 , i [31:0] $end
$var integer 32 - outfile [31:0] $end
$var integer 32 . stall [31:0] $end
$scope module CPU $end
$var wire 1 ' clk_i $end
$var wire 1 ( rst_i $end
$var wire 1 ) start_i $end
$var wire 1 / stall $end
$var wire 32 0 rs2_mem [31:0] $end
$var wire 32 1 rs2_exe_forwarded [31:0] $end
$var wire 32 2 rs2_exe [31:0] $end
$var wire 5 3 rs2_addr_exe [4:0] $end
$var wire 5 4 rs2_addr [4:0] $end
$var wire 32 5 rs2 [31:0] $end
$var wire 32 6 rs1_exe [31:0] $end
$var wire 5 7 rs1_addr_exe [4:0] $end
$var wire 5 8 rs1_addr [4:0] $end
$var wire 32 9 rs1 [31:0] $end
$var wire 1 : regwrite_wb $end
$var wire 1 ; regwrite_mem $end
$var wire 1 < regwrite_exe $end
$var wire 1 = regwrite $end
$var wire 32 > rd_data [31:0] $end
$var wire 5 ? rd_addr_wb [4:0] $end
$var wire 5 @ rd_addr_mem [4:0] $end
$var wire 5 A rd_addr_exe [4:0] $end
$var wire 5 B rd_addr [4:0] $end
$var wire 1 C pcwrite $end
$var wire 32 D pc_id [31:0] $end
$var wire 32 E pc [31:0] $end
$var wire 1 F noop $end
$var wire 32 G next_pc_no_branch [31:0] $end
$var wire 32 H next_pc_branch [31:0] $end
$var wire 32 I next_pc [31:0] $end
$var wire 1 J memwrite_mem $end
$var wire 1 K memwrite_exe $end
$var wire 1 L memwrite $end
$var wire 1 M memread_mem $end
$var wire 1 N memread_exe $end
$var wire 1 O memread $end
$var wire 32 P mem_result_wb [31:0] $end
$var wire 32 Q mem_result [31:0] $end
$var wire 1 R mem2reg_wb $end
$var wire 1 S mem2reg_mem $end
$var wire 1 T mem2reg_exe $end
$var wire 1 U mem2reg $end
$var wire 1 V is_zero $end
$var wire 32 W instruction_id [31:0] $end
$var wire 32 X instruction [31:0] $end
$var wire 32 Y imm_exe [31:0] $end
$var wire 32 Z imm [31:0] $end
$var wire 2 [ forwardB [1:0] $end
$var wire 2 \ forwardA [1:0] $end
$var wire 1 ] do_branch $end
$var wire 1 ^ branch $end
$var wire 1 _ alusrc_exe $end
$var wire 1 ` alusrc $end
$var wire 4 a aluctrl_exe [3:0] $end
$var wire 4 b aluctrl [3:0] $end
$var wire 32 c alu_result_wb [31:0] $end
$var wire 32 d alu_result_mem [31:0] $end
$var wire 32 e alu_result [31:0] $end
$var wire 32 f alu_op2 [31:0] $end
$var wire 32 g alu_op1 [31:0] $end
$scope module ALU $end
$var wire 1 V zero $end
$var wire 5 h shamt [4:0] $end
$var wire 32 i op2 [31:0] $end
$var wire 32 j op1 [31:0] $end
$var wire 4 k aluctrl [3:0] $end
$var reg 32 l result [31:0] $end
$upscope $end
$scope module Add_PC $end
$var wire 32 m data2_i [31:0] $end
$var wire 32 n data_o [31:0] $end
$var wire 32 o data1_i [31:0] $end
$upscope $end
$scope module Branch_Detection $end
$var wire 1 ] do_branch $end
$var wire 32 p rs2 [31:0] $end
$var wire 32 q rs1 [31:0] $end
$var wire 32 r pc_id [31:0] $end
$var wire 32 s imm [31:0] $end
$var wire 32 t branch_addr [31:0] $end
$var wire 1 ^ branch $end
$upscope $end
$scope module Control $end
$var wire 1 ^ branch $end
$var wire 3 u funct3 [2:0] $end
$var wire 7 v funct7 [6:0] $end
$var wire 1 w is_beq $end
$var wire 1 x is_i_type $end
$var wire 1 y is_load $end
$var wire 1 z is_r_type $end
$var wire 1 { is_store $end
$var wire 1 U mem2reg $end
$var wire 1 O memread $end
$var wire 1 L memwrite $end
$var wire 7 | opcode [6:0] $end
$var wire 1 = regwrite $end
$var wire 1 F noop $end
$var wire 1 ` alusrc $end
$var wire 4 } aluctrl [3:0] $end
$var reg 2 ~ aluop [1:0] $end
$scope module alucontrol $end
$var wire 2 !" aluop [1:0] $end
$var wire 3 "" funct3 [2:0] $end
$var wire 7 #" funct7 [6:0] $end
$var reg 4 $" aluctrl [3:0] $end
$upscope $end
$upscope $end
$scope module Data_Memory $end
$var wire 1 ' clk_i $end
$var wire 32 %" data_o [31:0] $end
$var wire 32 &" data_i [31:0] $end
$var wire 32 '" addr_i [31:0] $end
$var wire 1 J MemWrite_i $end
$var wire 1 M MemRead_i $end
$upscope $end
$scope module EXE_MEM $end
$var wire 32 (" alu_result_in [31:0] $end
$var wire 1 ' clk $end
$var wire 1 < regwrite_in $end
$var wire 5 )" rd_addr_in [4:0] $end
$var wire 1 K memwrite_in $end
$var wire 32 *" memwrite_addr_in [31:0] $end
$var wire 1 N memread_in $end
$var wire 1 T mem2reg_in $end
$var reg 32 +" alu_result_out [31:0] $end
$var reg 1 S mem2reg_out $end
$var reg 1 M memread_out $end
$var reg 32 ," memwrite_addr_out [31:0] $end
$var reg 1 J memwrite_out $end
$var reg 5 -" rd_addr_out [4:0] $end
$var reg 1 ; regwrite_out $end
$upscope $end
$scope module Forwarding $end
$var wire 5 ." rd_addr_mem [4:0] $end
$var wire 1 ; regwrite_mem $end
$var wire 5 /" rs2_addr_exe [4:0] $end
$var wire 5 0" rs1_addr_exe [4:0] $end
$var wire 1 : regwrite_wb $end
$var wire 5 1" rd_addr_wb [4:0] $end
$var wire 2 2" forwardB [1:0] $end
$var wire 2 3" forwardA [1:0] $end
$upscope $end
$scope module Hazard_Detection $end
$var wire 1 4" is_load_use $end
$var wire 1 F noop $end
$var wire 5 5" rs1_addr [4:0] $end
$var wire 5 6" rs2_addr [4:0] $end
$var wire 1 / stall $end
$var wire 5 7" rd_addr_exe [4:0] $end
$var wire 1 C pcwrite $end
$var wire 1 N memread_exe $end
$upscope $end
$scope module ID_EXE $end
$var wire 4 8" aluctrl_in [3:0] $end
$var wire 1 ` alusrc_in $end
$var wire 1 ' clk $end
$var wire 1 U mem2reg_in $end
$var wire 1 O memread_in $end
$var wire 1 L memwrite_in $end
$var wire 5 9" rd_addr_in [4:0] $end
$var wire 1 = regwrite_in $end
$var wire 5 :" rs1_addr_in [4:0] $end
$var wire 5 ;" rs2_addr_in [4:0] $end
$var wire 32 <" rs2_in [31:0] $end
$var wire 32 =" rs1_in [31:0] $end
$var wire 32 >" imm_in [31:0] $end
$var reg 4 ?" aluctrl_out [3:0] $end
$var reg 1 _ alusrc_out $end
$var reg 32 @" imm_out [31:0] $end
$var reg 1 T mem2reg_out $end
$var reg 1 N memread_out $end
$var reg 1 K memwrite_out $end
$var reg 5 A" rd_addr_out [4:0] $end
$var reg 1 < regwrite_out $end
$var reg 5 B" rs1_addr_out [4:0] $end
$var reg 32 C" rs1_out [31:0] $end
$var reg 5 D" rs2_addr_out [4:0] $end
$var reg 32 E" rs2_out [31:0] $end
$upscope $end
$scope module IF_ID $end
$var wire 1 ' clk $end
$var wire 1 / stall $end
$var wire 32 F" pc_in [31:0] $end
$var wire 32 G" instruction_in [31:0] $end
$var reg 32 H" instruction_out [31:0] $end
$var reg 32 I" pc_out [31:0] $end
$upscope $end
$scope module Imm_Gen $end
$var wire 32 J" instruction [31:0] $end
$var wire 7 K" opcode [6:0] $end
$var reg 32 L" imm [31:0] $end
$upscope $end
$scope module Instruction_Memory $end
$var wire 32 M" instr_o [31:0] $end
$var wire 32 N" addr_i [31:0] $end
$upscope $end
$scope module M2_ALU $end
$var wire 32 O" data2_i [31:0] $end
$var wire 1 _ select_i $end
$var wire 32 P" data_o [31:0] $end
$var wire 32 Q" data1_i [31:0] $end
$upscope $end
$scope module M2_PC $end
$var wire 32 R" data1_i [31:0] $end
$var wire 32 S" data2_i [31:0] $end
$var wire 1 ] select_i $end
$var wire 32 T" data_o [31:0] $end
$upscope $end
$scope module M2_WB $end
$var wire 1 R select_i $end
$var wire 32 U" data_o [31:0] $end
$var wire 32 V" data2_i [31:0] $end
$var wire 32 W" data1_i [31:0] $end
$upscope $end
$scope module M4_ForwardA $end
$var wire 32 X" data1_i [31:0] $end
$var wire 32 Y" data2_i [31:0] $end
$var wire 32 Z" data3_i [31:0] $end
$var wire 32 [" data4_i [31:0] $end
$var wire 2 \" select_i [1:0] $end
$var reg 32 ]" data_o [31:0] $end
$upscope $end
$scope module M4_ForwardB $end
$var wire 32 ^" data1_i [31:0] $end
$var wire 32 _" data2_i [31:0] $end
$var wire 32 `" data3_i [31:0] $end
$var wire 32 a" data4_i [31:0] $end
$var wire 2 b" select_i [1:0] $end
$var reg 32 c" data_o [31:0] $end
$upscope $end
$scope module MEM_WB $end
$var wire 32 d" alu_result_in [31:0] $end
$var wire 1 ' clk $end
$var wire 1 S mem2reg_in $end
$var wire 32 e" mem_result_in [31:0] $end
$var wire 5 f" rd_addr_in [4:0] $end
$var wire 1 ; regwrite_in $end
$var reg 32 g" alu_result_out [31:0] $end
$var reg 1 R mem2reg_out $end
$var reg 32 h" mem_result_out [31:0] $end
$var reg 5 i" rd_addr_out [4:0] $end
$var reg 1 : regwrite_out $end
$upscope $end
$scope module PC $end
$var wire 1 ' clk_i $end
$var wire 32 j" pc_i [31:0] $end
$var wire 1 ( rst_i $end
$var wire 1 k" start_i $end
$var reg 32 l" pc_o [31:0] $end
$upscope $end
$scope module Registers $end
$var wire 5 m" RDaddr_i [4:0] $end
$var wire 32 n" RDdata_i [31:0] $end
$var wire 5 o" RS1addr_i [4:0] $end
$var wire 5 p" RS2addr_i [4:0] $end
$var wire 1 : RegWrite_i $end
$var wire 1 ' clk_i $end
$var wire 32 q" RS2data_o [31:0] $end
$var wire 32 r" RS1data_o [31:0] $end
$upscope $end
$upscope $end
$upscope $end
$enddefinitions $end
#0
$dumpvars
b0 r"
b0 q"
b0 p"
b0 o"
b0 n"
b0 m"
b0 l"
0k"
b100 j"
b0 i"
b0 h"
b0 g"
b0 f"
b0 e"
b0 d"
b0 c"
b0 b"
b0 a"
b0 `"
b0 _"
b0 ^"
b0 ]"
b0 \"
b0 ["
b0 Z"
b0 Y"
b0 X"
b0 W"
b0 V"
b0 U"
b100 T"
b0 S"
b100 R"
b0 Q"
b0 P"
b0 O"
b0 N"
b10010000000011 M"
b0 L"
b0 K"
b0 J"
b0 I"
b0 H"
b10010000000011 G"
b0 F"
b0 E"
bx D"
b0 C"
bx B"
b0 A"
b0 @"
b0 ?"
b0 >"
b0 ="
b0 <"
b0 ;"
b0 :"
b0 9"
b1111 8"
b0 7"
b0 6"
b0 5"
04"
b0 3"
b0 2"
b0 1"
bx 0"
bx /"
b0 ."
b0 -"
bx ,"
b0 +"
b0 *"
b0 )"
b0 ("
b0 '"
bx &"
b0 %"
b1111 $"
b0 #"
b0 ""
bx !"
bx ~
b1111 }
b0 |
0{
0z
0y
0x
0w
b0 v
b0 u
b0 t
b0 s
b0 r
b0 q
b0 p
b0 o
b100 n
b100 m
b0 l
b0 k
b0 j
b0 i
b0 h
b0 g
b0 f
b0 e
b0 d
b0 c
b1111 b
b0 a
1`
0_
0^
0]
b0 \
b0 [
b0 Z
b0 Y
b10010000000011 X
b0 W
1V
0U
0T
0S
0R
b0 Q
b0 P
0O
0N
0M
0L
0K
0J
b100 I
b0 H
b100 G
0F
b0 E
b0 D
1C
b0 B
b0 A
b0 @
b0 ?
b0 >
0=
0<
0;
0:
b0 9
b0 8
bx 7
b0 6
b0 5
b0 4
bx 3
b0 2
b0 1
bx 0
0/
b0 .
b11 -
b100000 ,
b0 +
b0 *
0)
0(
0'
x&
bz %
bz $
x#
bz "
bz !
$end
#12
1k"
1)
1(
#25
b11 b
b11 }
b11 $"
b11 8"
1=
b0 ~
b0 !"
1O
1U
1y
b11 K"
b10 u
b10 ""
b11 |
b1000 B
b1000 9"
b0xxxxxxxxxxxxxxxxxxxxxxxxxxxxxxx e
b0xxxxxxxxxxxxxxxxxxxxxxxxxxxxxxx l
b0xxxxxxxxxxxxxxxxxxxxxxxxxxxxxxx ("
b100001000000010010110011 X
b100001000000010010110011 G"
b100001000000010010110011 M"
b1000 I
b1000 T"
b1000 j"
b10010000000011 W
b10010000000011 H"
b10010000000011 J"
b1111 a
b1111 k
b1111 ?"
1_
b0 3
b0 /"
b0 D"
b0 7
b0 0"
b0 B"
b0 0
b0 &"
b0 ,"
b1000 G
b1000 n
b1000 R"
b100 E
b100 o
b100 F"
b100 N"
b100 l"
b1 *
1'
#50
0'
#75
b1111 b
b1111 }
b1111 $"
b1111 8"
0=
bx ~
bx !"
0k"
0O
0U
0y
1/
1F
0C
14"
b0 e
b0 l
b0 ("
b1000 Z
b1000 s
b1000 >"
b1000 L"
b110011 K"
b0 u
b0 ""
b110011 |
b1001 B
b1001 9"
b1000 4
b1000 6"
b1000 ;"
b1000 p"
b1000 8
b1000 5"
b1000 :"
b1000 o"
b10000000010010100000011 X
b10000000010010100000011 G"
b10000000010010100000011 M"
b1100 I
b1100 T"
b1100 j"
b0xxxxxxxxxxxxxxxxxxxxxxxxxxxxxxx d
b0xxxxxxxxxxxxxxxxxxxxxxxxxxxxxxx '"
b0xxxxxxxxxxxxxxxxxxxxxxxxxxxxxxx +"
b0xxxxxxxxxxxxxxxxxxxxxxxxxxxxxxx Z"
b0xxxxxxxxxxxxxxxxxxxxxxxxxxxxxxx `"
b0xxxxxxxxxxxxxxxxxxxxxxxxxxxxxxx d"
1<
1T
1N
b11 a
b11 k
b11 ?"
b1000 A
b1000 )"
b1000 7"
b1000 A"
b10100 H
b10100 t
b10100 S"
b100 D
b100 r
b100 I"
b100001000000010010110011 W
b100001000000010010110011 H"
b100001000000010010110011 J"
b1100 G
b1100 n
b1100 R"
b1000 E
b1000 o
b1000 F"
b1000 N"
b1000 l"
b10 *
1'
#100
0'
#125
1=
b11 b
b11 }
b11 $"
b11 8"
0`
b11 ~
b11 !"
1z
1k"
b1000 h
b10 \
b10 3"
b10 \"
b10 [
b10 2"
b10 b"
0/
0F
1C
04"
b0xxxxxxxxxxxxxxxxxxxxxxxxxxxxxxx e
b0xxxxxxxxxxxxxxxxxxxxxxxxxxxxxxx l
b0xxxxxxxxxxxxxxxxxxxxxxxxxxxxxxx ("
0V
b1000 f
b1000 i
b1000 P"
b101 Q
b101 %"
b101 e"
b0xxxxxxxxxxxxxxxxxxxxxxxxxxxxxxx >
b0xxxxxxxxxxxxxxxxxxxxxxxxxxxxxxx U"
b0xxxxxxxxxxxxxxxxxxxxxxxxxxxxxxx Y"
b0xxxxxxxxxxxxxxxxxxxxxxxxxxxxxxx _"
b0xxxxxxxxxxxxxxxxxxxxxxxxxxxxxxx n"
0<
0T
0N
b1111 a
b1111 k
b1111 ?"
b1000 Y
b1000 @"
b1000 O"
b1001 A
b1001 )"
b1001 7"
b1001 A"
b1000 3
b1000 /"
b1000 D"
b1000 7
b1000 0"
b1000 B"
b0 d
b0 '"
b0 +"
b0 Z"
b0 `"
b0 d"
b1000 @
b1000 -"
b1000 ."
b1000 f"
1;
1S
1M
b0xxxxxxxxxxxxxxxxxxxxxxxxxxxxxxx c
b0xxxxxxxxxxxxxxxxxxxxxxxxxxxxxxx W"
b0xxxxxxxxxxxxxxxxxxxxxxxxxxxxxxx g"
b11 *
1'
#150
0'
#175
1`
b0 ~
b0 !"
b1 \
b1 3"
b1 \"
b1 [
b1 2"
b1 b"
b101 h
b11 b
b11 }
b11 $"
b11 8"
0z
1O
1U
1y
b101 >
b101 U"
b101 Y"
b101 _"
b101 n"
b101 g
b101 j
b101 ]"
b101 1
b101 *"
b101 Q"
b101 c"
b0 Q
b0 %"
b0 e"
b1010 e
b1010 l
b1010 ("
1V
b101 f
b101 i
b101 P"
b100 Z
b100 s
b100 >"
b100 L"
b11 K"
b10 u
b10 ""
b11 |
b1010 B
b1010 9"
b100 4
b100 6"
b100 ;"
b100 p"
b0 8
b0 5"
b0 :"
b0 o"
b101001010000010110110011 X
b101001010000010110110011 G"
b101001010000010110110011 M"
b10000 I
b10000 T"
b10000 j"
b101 P
b101 V"
b101 h"
b0 c
b0 W"
b0 g"
b1000 ?
b1000 1"
b1000 i"
b1000 m"
1:
1R
b0xxxxxxxxxxxxxxxxxxxxxxxxxxxxxxx d
b0xxxxxxxxxxxxxxxxxxxxxxxxxxxxxxx '"
b0xxxxxxxxxxxxxxxxxxxxxxxxxxxxxxx +"
b0xxxxxxxxxxxxxxxxxxxxxxxxxxxxxxx Z"
b0xxxxxxxxxxxxxxxxxxxxxxxxxxxxxxx `"
b0xxxxxxxxxxxxxxxxxxxxxxxxxxxxxxx d"
b1001 @
b1001 -"
b1001 ."
b1001 f"
0;
0S
0M
1<
b11 a
b11 k
b11 ?"
0_
b10000 H
b10000 t
b10000 S"
b1000 D
b1000 r
b1000 I"
b10000000010010100000011 W
b10000000010010100000011 H"
b10000000010010100000011 J"
b10000 G
b10000 n
b10000 R"
b1100 E
b1100 o
b1100 F"
b1100 N"
b1100 l"
b100 *
1'
#200
0'
#225
b1111 b
b1111 }
b1111 $"
b1111 8"
1`
0k"
0=
bx ~
bx !"
1/
1F
0C
14"
b0 [
b0 2"
b0 b"
b0 \
b0 3"
b0 \"
0z
0O
0U
0y
b100 h
b100 e
b100 l
b100 ("
b1010 Z
b1010 s
b1010 >"
b1010 L"
b110011 K"
b0 u
b0 ""
b110011 |
b1011 B
b1011 9"
b1010 4
b1010 6"
b1010 ;"
b1010 p"
b1010 8
b1010 5"
b1010 :"
b1010 o"
b100 f
b100 i
b100 P"
0V
b0 g
b0 j
b0 ]"
b0 1
b0 *"
b0 Q"
b0 c"
b0xxxxxxxxxxxxxxxxxxxxxxxxxxxxxxx >
b0xxxxxxxxxxxxxxxxxxxxxxxxxxxxxxx U"
b0xxxxxxxxxxxxxxxxxxxxxxxxxxxxxxx Y"
b0xxxxxxxxxxxxxxxxxxxxxxxxxxxxxxx _"
b0xxxxxxxxxxxxxxxxxxxxxxxxxxxxxxx n"
b100000000010011000000011 X
b100000000010011000000011 G"
b100000000010011000000011 M"
b10100 I
b10100 T"
b10100 j"
b100000 H
b100000 t
b100000 S"
b1100 D
b1100 r
b1100 I"
b101001010000010110110011 W
b101001010000010110110011 H"
b101001010000010110110011 J"
1T
1N
1_
b100 Y
b100 @"
b100 O"
b1010 A
b1010 )"
b1010 7"
b1010 A"
b100 3
b100 /"
b100 D"
b0 7
b0 0"
b0 B"
b1010 d
b1010 '"
b1010 +"
b1010 Z"
b1010 `"
b1010 d"
b101 0
b101 &"
b101 ,"
1;
b0 P
b0 V"
b0 h"
b0xxxxxxxxxxxxxxxxxxxxxxxxxxxxxxx c
b0xxxxxxxxxxxxxxxxxxxxxxxxxxxxxxx W"
b0xxxxxxxxxxxxxxxxxxxxxxxxxxxxxxx g"
b1001 ?
b1001 1"
b1001 i"
b1001 m"
0:
0R
b10100 G
b10100 n
b10100 R"
b10000 E
b10000 o
b10000 F"
b10000 N"
b10000 l"
b101 *
1'
#250
0'
#275
1=
b11 b
b11 }
b11 $"
b11 8"
0`
b11 ~
b11 !"
b100 g
b100 j
b100 ]"
b100 1
b100 *"
b100 Q"
b100 c"
b10 \
b10 3"
b10 \"
b10 [
b10 2"
b10 b"
1z
1k"
b1010 h
b1010 >
b1010 U"
b1010 Y"
b1010 _"
b1010 n"
b110 Q
b110 %"
b110 e"
0/
0F
1C
04"
b0xxxxxxxxxxxxxxxxxxxxxxxxxxxxxxx e
b0xxxxxxxxxxxxxxxxxxxxxxxxxxxxxxx l
b0xxxxxxxxxxxxxxxxxxxxxxxxxxxxxxx ("
b1010 f
b1010 i
b1010 P"
b1010 c
b1010 W"
b1010 g"
1:
b100 d
b100 '"
b100 +"
b100 Z"
b100 `"
b100 d"
b1010 @
b1010 -"
b1010 ."
b1010 f"
b0 0
b0 &"
b0 ,"
1S
1M
0<
0T
0N
b1111 a
b1111 k
b1111 ?"
b1010 Y
b1010 @"
b1010 O"
b1011 A
b1011 )"
b1011 7"
b1011 A"
b1010 3
b1010 /"
b1010 D"
b1010 7
b1010 0"
b1010 B"
b110 *
1'
#300
0'
#325
1`
b0 ~
b0 !"
b11 b
b11 }
b11 $"
b11 8"
0z
1O
1U
1y
b110 h
b1 \
b1 3"
b1 \"
b1 [
b1 2"
b1 b"
b0 9
b0 q
b0 ="
b0 r"
b101 5
b101 p
b101 <"
b101 q"
b1000 Z
b1000 s
b1000 >"
b1000 L"
b11 K"
b10 u
b10 ""
b11 |
b1100 B
b1100 9"
b1000 4
b1000 6"
b1000 ;"
b1000 p"
b0 8
b0 5"
b0 :"
b0 o"
b1100 e
b1100 l
b1100 ("
b110 f
b110 i
b110 P"
1V
b110 g
b110 j
b110 ]"
b110 1
b110 *"
b110 Q"
b110 c"
b0 Q
b0 %"
b0 e"
b110 >
b110 U"
b110 Y"
b110 _"
b110 n"
b110001100000011010110011 X
b110001100000011010110011 G"
b110001100000011010110011 M"
b11000 I
b11000 T"
b11000 j"
b100000 H
b100000 t
b100000 S"
b10000 D
b10000 r
b10000 I"
b100000000010011000000011 W
b100000000010011000000011 H"
b100000000010011000000011 J"
1<
b11 a
b11 k
b11 ?"
0_
b0xxxxxxxxxxxxxxxxxxxxxxxxxxxxxxx d
b0xxxxxxxxxxxxxxxxxxxxxxxxxxxxxxx '"
b0xxxxxxxxxxxxxxxxxxxxxxxxxxxxxxx +"
b0xxxxxxxxxxxxxxxxxxxxxxxxxxxxxxx Z"
b0xxxxxxxxxxxxxxxxxxxxxxxxxxxxxxx `"
b0xxxxxxxxxxxxxxxxxxxxxxxxxxxxxxx d"
b1011 @
b1011 -"
b1011 ."
b1011 f"
b100 0
b100 &"
b100 ,"
0;
0S
0M
b110 P
b110 V"
b110 h"
b100 c
b100 W"
b100 g"
b1010 ?
b1010 1"
b1010 i"
b1010 m"
1R
b11000 G
b11000 n
b11000 R"
b10100 E
b10100 o
b10100 F"
b10100 N"
b10100 l"
b111 *
1'
#350
0'
#375
b1111 b
b1111 }
b1111 $"
b1111 8"
1`
0k"
b0 [
b0 2"
b0 b"
b0 \
b0 3"
b0 \"
0=
bx ~
bx !"
1/
1F
0C
14"
b0 g
b0 j
b0 ]"
b101 1
b101 *"
b101 Q"
b101 c"
b1000 h
b1000 e
b1000 l
b1000 ("
0z
0O
0U
0y
b0 5
b0 p
b0 <"
b0 q"
b0xxxxxxxxxxxxxxxxxxxxxxxxxxxxxxx >
b0xxxxxxxxxxxxxxxxxxxxxxxxxxxxxxx U"
b0xxxxxxxxxxxxxxxxxxxxxxxxxxxxxxx Y"
b0xxxxxxxxxxxxxxxxxxxxxxxxxxxxxxx _"
b0xxxxxxxxxxxxxxxxxxxxxxxxxxxxxxx n"
0V
b1000 f
b1000 i
b1000 P"
b1100 Z
b1100 s
b1100 >"
b1100 L"
b110011 K"
b0 u
b0 ""
b110011 |
b1101 B
b1101 9"
b1100 4
b1100 6"
b1100 ;"
b1100 p"
b1100 8
b1100 5"
b1100 :"
b1100 o"
b110000000010011100000011 X
b110000000010011100000011 G"
b110000000010011100000011 M"
b11100 I
b11100 T"
b11100 j"
b0 P
b0 V"
b0 h"
b0xxxxxxxxxxxxxxxxxxxxxxxxxxxxxxx c
b0xxxxxxxxxxxxxxxxxxxxxxxxxxxxxxx W"
b0xxxxxxxxxxxxxxxxxxxxxxxxxxxxxxx g"
b1011 ?
b1011 1"
b1011 i"
b1011 m"
0:
0R
b1100 d
b1100 '"
b1100 +"
b1100 Z"
b1100 `"
b1100 d"
b110 0
b110 &"
b110 ,"
1;
1T
1N
1_
b1000 Y
b1000 @"
b1000 O"
b1100 A
b1100 )"
b1100 7"
b1100 A"
b1000 3
b1000 /"
b1000 D"
b0 7
b0 0"
b0 B"
b101 2
b101 E"
b101 ^"
b101100 H
b101100 t
b101100 S"
b10100 D
b10100 r
b10100 I"
b110001100000011010110011 W
b110001100000011010110011 H"
b110001100000011010110011 J"
b11100 G
b11100 n
b11100 R"
b11000 E
b11000 o
b11000 F"
b11000 N"
b11000 l"
b1000 *
1'
#400
0'
#425
1=
b11 b
b11 }
b11 $"
b11 8"
0`
b11 ~
b11 !"
b1000 g
b1000 j
b1000 ]"
1z
1k"
b1100 h
b10 [
b10 2"
b10 b"
b10 \
b10 3"
b10 \"
0/
0F
1C
04"
b0xxxxxxxxxxxxxxxxxxxxxxxxxxxxxxx e
b0xxxxxxxxxxxxxxxxxxxxxxxxxxxxxxx l
b0xxxxxxxxxxxxxxxxxxxxxxxxxxxxxxx ("
b1100 f
b1100 i
b1100 P"
b1000 1
b1000 *"
b1000 Q"
b1000 c"
b1010 Q
b1010 %"
b1010 e"
b1100 >
b1100 U"
b1100 Y"
b1100 _"
b1100 n"
0<
0T
0N
b1111 a
b1111 k
b1111 ?"
b1100 Y
b1100 @"
b1100 O"
b1101 A
b1101 )"
b1101 7"
b1101 A"
b1100 3
b1100 /"
b1100 D"
b1100 7
b1100 0"
b1100 B"
b0 2
b0 E"
b0 ^"
b1000 d
b1000 '"
b1000 +"
b1000 Z"
b1000 `"
b1000 d"
b1100 @
b1100 -"
b1100 ."
b1100 f"
b101 0
b101 &"
b101 ,"
1S
1M
b1100 c
b1100 W"
b1100 g"
1:
b1001 *
1'
#450
0'
#475
1`
b0 ~
b0 !"
b1010 5
b1010 p
b1010 <"
b1010 q"
b1 \
b1 3"
b1 \"
b1 [
b1 2"
b1 b"
b1010 h
b11 b
b11 }
b11 $"
b11 8"
0z
1O
1U
1y
b1010 >
b1010 U"
b1010 Y"
b1010 _"
b1010 n"
b1010 g
b1010 j
b1010 ]"
b1010 1
b1010 *"
b1010 Q"
b1010 c"
b0 Q
b0 %"
b0 e"
b10100 e
b10100 l
b10100 ("
1V
b1010 f
b1010 i
b1010 P"
b11 K"
b10 u
b10 ""
b11 |
b1110 B
b1110 9"
b0 8
b0 5"
b0 :"
b0 o"
b111001110000011110110011 X
b111001110000011110110011 G"
b111001110000011110110011 M"
b100000 I
b100000 T"
b100000 j"
b1010 P
b1010 V"
b1010 h"
b1000 c
b1000 W"
b1000 g"
b1100 ?
b1100 1"
b1100 i"
b1100 m"
1R
b0xxxxxxxxxxxxxxxxxxxxxxxxxxxxxxx d
b0xxxxxxxxxxxxxxxxxxxxxxxxxxxxxxx '"
b0xxxxxxxxxxxxxxxxxxxxxxxxxxxxxxx +"
b0xxxxxxxxxxxxxxxxxxxxxxxxxxxxxxx Z"
b0xxxxxxxxxxxxxxxxxxxxxxxxxxxxxxx `"
b0xxxxxxxxxxxxxxxxxxxxxxxxxxxxxxx d"
b1101 @
b1101 -"
b1101 ."
b1101 f"
b1000 0
b1000 &"
b1000 ,"
0;
0S
0M
1<
b11 a
b11 k
b11 ?"
0_
b110000 H
b110000 t
b110000 S"
b11000 D
b11000 r
b11000 I"
b110000000010011100000011 W
b110000000010011100000011 H"
b110000000010011100000011 J"
b100000 G
b100000 n
b100000 R"
b11100 E
b11100 o
b11100 F"
b11100 N"
b11100 l"
b1010 *
1'
#500
0'
#525
b1111 b
b1111 }
b1111 $"
b1111 8"
1`
0k"
0=
bx ~
bx !"
1/
1F
0C
14"
b0 [
b0 2"
b0 b"
b0 \
b0 3"
b0 \"
0z
0O
0U
0y
b1100 h
b1100 e
b1100 l
b1100 ("
b0 5
b0 p
b0 <"
b0 q"
b1110 Z
b1110 s
b1110 >"
b1110 L"
b110011 K"
b0 u
b0 ""
b110011 |
b1111 B
b1111 9"
b1110 4
b1110 6"
b1110 ;"
b1110 p"
b1110 8
b1110 5"
b1110 :"
b1110 o"
b1100 f
b1100 i
b1100 P"
0V
b0 g
b0 j
b0 ]"
b1010 1
b1010 *"
b1010 Q"
b1010 c"
b0xxxxxxxxxxxxxxxxxxxxxxxxxxxxxxx >
b0xxxxxxxxxxxxxxxxxxxxxxxxxxxxxxx U"
b0xxxxxxxxxxxxxxxxxxxxxxxxxxxxxxx Y"
b0xxxxxxxxxxxxxxxxxxxxxxxxxxxxxxx _"
b0xxxxxxxxxxxxxxxxxxxxxxxxxxxxxxx n"
b1110011000000100000110011 X
b1110011000000100000110011 G"
b1110011000000100000110011 M"
b100100 I
b100100 T"
b100100 j"
b111000 H
b111000 t
b111000 S"
b11100 D
b11100 r
b11100 I"
b111001110000011110110011 W
b111001110000011110110011 H"
b111001110000011110110011 J"
1T
1N
1_
b1110 A
b1110 )"
b1110 7"
b1110 A"
b0 7
b0 0"
b0 B"
b1010 2
b1010 E"
b1010 ^"
b10100 d
b10100 '"
b10100 +"
b10100 Z"
b10100 `"
b10100 d"
b1010 0
b1010 &"
b1010 ,"
1;
b0 P
b0 V"
b0 h"
b0xxxxxxxxxxxxxxxxxxxxxxxxxxxxxxx c
b0xxxxxxxxxxxxxxxxxxxxxxxxxxxxxxx W"
b0xxxxxxxxxxxxxxxxxxxxxxxxxxxxxxx g"
b1101 ?
b1101 1"
b1101 i"
b1101 m"
0:
0R
b100100 G
b100100 n
b100100 R"
b100000 E
b100000 o
b100000 F"
b100000 N"
b100000 l"
b1011 *
1'
#550
0'
