lab2/codes/CPU.vcd
$date
	Mon Jan  2 17:51:55 2023
$end
$version
	Icarus Verilog
$end
$timescale
	1s
$end
$scope module Ander $end
$var wire 32 ! data1_i [31:0] $end
$var wire 32 " data2_i [31:0] $end
$var wire 1 # data_o $end
$upscope $end
$scope module Equaler $end
$var wire 32 $ data1_i [31:0] $end
$var wire 32 % data2_i [31:0] $end
$var wire 1 & data_o $end
$upscope $end
$scope module TestBench $end
$var reg 1 ' Clk $end
$var reg 1 ( Reset $end
$var integer 32 ) counter [31:0] $end
$var integer 32 * i [31:0] $end
$var integer 32 + outfile [31:0] $end
$scope module CPU $end
$var wire 1 ' clk_i $end
$var wire 1 ( rst_i $end
$var wire 1 , stall $end
$var wire 32 - rs2_mem [31:0] $end
$var wire 32 . rs2_exe_forwarded [31:0] $end
$var wire 32 / rs2_exe [31:0] $end
$var wire 5 0 rs2_addr_exe [4:0] $end
$var wire 5 1 rs2_addr [4:0] $end
$var wire 32 2 rs2 [31:0] $end
$var wire 32 3 rs1_exe [31:0] $end
$var wire 5 4 rs1_addr_exe [4:0] $end
$var wire 5 5 rs1_addr [4:0] $end
$var wire 32 6 rs1 [31:0] $end
$var wire 1 7 regwrite_wb $end
$var wire 1 8 regwrite_mem $end
$var wire 1 9 regwrite_exe $end
$var wire 1 : regwrite $end
$var wire 32 ; rd_data [31:0] $end
$var wire 5 < rd_addr_wb [4:0] $end
$var wire 5 = rd_addr_mem [4:0] $end
$var wire 5 > rd_addr_exe [4:0] $end
$var wire 5 ? rd_addr [4:0] $end
$var wire 1 @ pcwrite $end
$var wire 32 A pc_rollback [31:0] $end
$var wire 32 B pc_predict_branch [31:0] $end
$var wire 32 C pc_plus_four [31:0] $end
$var wire 32 D pc_id [31:0] $end
$var wire 32 E pc_go_on [31:0] $end
$var wire 32 F pc_exe [31:0] $end
$var wire 32 G pc [31:0] $end
$var wire 1 H noop $end
$var wire 32 I next_pc [31:0] $end
$var wire 1 J memwrite_mem $end
$var wire 1 K memwrite_exe $end
$var wire 1 L memwrite $end
$var wire 1 M memread_mem $end
$var wire 1 N memread_exe $end
$var wire 1 O memread $end
$var wire 32 P mem_result_wb [31:0] $end
$var wire 32 Q mem_result [31:0] $end
$var wire 1 R mem2reg_wb $end
$var wire 1 S mem2reg_mem $end
$var wire 1 T mem2reg_exe $end
$var wire 1 U mem2reg $end
$var wire 1 V is_zero $end
$var wire 1 W is_mispredict $end
$var wire 32 X instruction_id [31:0] $end
$var wire 32 Y instruction [31:0] $end
$var wire 32 Z imm_exe [31:0] $end
$var wire 32 [ imm [31:0] $end
$var wire 2 \ forwardB [1:0] $end
$var wire 2 ] forwardA [1:0] $end
$var wire 1 ^ branch_pred_exe $end
$var wire 1 _ branch_pred $end
$var wire 1 ` branch_instr_exe $end
$var wire 1 a branch_instr $end
$var wire 1 b alusrc_exe $end
$var wire 1 c alusrc $end
$var wire 4 d aluctrl_exe [3:0] $end
$var wire 4 e aluctrl [3:0] $end
$var wire 32 f alu_result_wb [31:0] $end
$var wire 32 g alu_result_mem [31:0] $end
$var wire 32 h alu_result [31:0] $end
$var wire 32 i alu_op2 [31:0] $end
$var wire 32 j alu_op1 [31:0] $end
$scope module ALU $end
$var wire 1 V zero $end
$var wire 5 k shamt [4:0] $end
$var wire 32 l op2 [31:0] $end
$var wire 32 m op1 [31:0] $end
$var wire 4 n aluctrl [3:0] $end
$var reg 32 o result [31:0] $end
$upscope $end
$scope module Add_PC $end
$var wire 32 p data2_i [31:0] $end
$var wire 32 q data_o [31:0] $end
$var wire 32 r data1_i [31:0] $end
$upscope $end
$scope module Branch_Predictor $end
$var wire 1 ' clk_i $end
$var wire 1 V result_i $end
$var wire 1 ( rst_i $end
$var wire 1 ` update_i $end
$var wire 1 _ predict_o $end
$var reg 2 s new_state [1:0] $end
$var reg 2 t state [1:0] $end
$upscope $end
$scope module Control $end
$var wire 1 a branch_instr $end
$var wire 3 u funct3 [2:0] $end
$var wire 7 v funct7 [6:0] $end
$var wire 1 w is_beq $end
$var wire 1 x is_i_type $end
$var wire 1 y is_load $end
$var wire 1 z is_r_type $end
$var wire 1 { is_store $end
$var wire 1 U mem2reg $end
$var wire 1 O memread $end
$var wire 1 L memwrite $end
$var wire 7 | opcode [6:0] $end
$var wire 1 : regwrite $end
$var wire 1 H noop $end
$var wire 1 c alusrc $end
$var wire 4 } aluctrl [3:0] $end
$var reg 2 ~ aluop [1:0] $end
$scope module alucontrol $end
$var wire 2 !" aluop [1:0] $end
$var wire 3 "" funct3 [2:0] $end
$var wire 7 #" funct7 [6:0] $end
$var reg 4 $" aluctrl [3:0] $end
$upscope $end
$upscope $end
$scope module Control_Hazard_Detection $end
$var wire 1 W is_mispredict $end
$var wire 1 V is_zero $end
$var wire 32 %" pc_rollback [31:0] $end
$var wire 32 &" pc_exe [31:0] $end
$var wire 32 '" imm_exe [31:0] $end
$var wire 1 ^ branch_pred_exe $end
$var wire 1 ` branch_instr_exe $end
$upscope $end
$scope module Data_Memory $end
$var wire 1 ' clk_i $end
$var wire 32 (" data_o [31:0] $end
$var wire 32 )" data_i [31:0] $end
$var wire 32 *" addr_i [31:0] $end
$var wire 1 J MemWrite_i $end
$var wire 1 M MemRead_i $end
$upscope $end
$scope module EXE_MEM $end
$var wire 32 +" alu_result_in [31:0] $end
$var wire 1 ' clk $end
$var wire 1 9 regwrite_in $end
$var wire 5 ," rd_addr_in [4:0] $end
$var wire 1 K memwrite_in $end
$var wire 32 -" memwrite_addr_in [31:0] $end
$var wire 1 N memread_in $end
$var wire 1 T mem2reg_in $end
$var reg 32 ." alu_result_out [31:0] $end
$var reg 1 S mem2reg_out $end
$var reg 1 M memread_out $end
$var reg 32 /" memwrite_addr_out [31:0] $end
$var reg 1 J memwrite_out $end
$var reg 5 0" rd_addr_out [4:0] $end
$var reg 1 8 regwrite_out $end
$upscope $end
$scope module Forwarding $end
$var wire 5 1" rd_addr_mem [4:0] $end
$var wire 1 8 regwrite_mem $end
$var wire 5 2" rs2_addr_exe [4:0] $end
$var wire 5 3" rs1_addr_exe [4:0] $end
$var wire 1 7 regwrite_wb $end
$var wire 5 4" rd_addr_wb [4:0] $end
$var wire 2 5" forwardB [1:0] $end
$var wire 2 6" forwardA [1:0] $end
$upscope $end
$scope module Hazard_Detection $end
$var wire 1 7" is_load_use $end
$var wire 1 H noop $end
$var wire 5 8" rs1_addr [4:0] $end
$var wire 5 9" rs2_addr [4:0] $end
$var wire 1 , stall $end
$var wire 5 :" rd_addr_exe [4:0] $end
$var wire 1 @ pcwrite $end
$var wire 1 N memread_exe $end
$upscope $end
$scope module ID_EXE $end
$var wire 4 ;" aluctrl_in [3:0] $end
$var wire 1 c alusrc_in $end
$var wire 1 a branch_instr_in $end
$var wire 1 _ branch_pred_in $end
$var wire 1 ' clk $end
$var wire 1 W flush $end
$var wire 1 U mem2reg_in $end
$var wire 1 O memread_in $end
$var wire 1 L memwrite_in $end
$var wire 5 <" rd_addr_in [4:0] $end
$var wire 1 : regwrite_in $end
$var wire 5 =" rs1_addr_in [4:0] $end
$var wire 5 >" rs2_addr_in [4:0] $end
$var wire 32 ?" rs2_in [31:0] $end
$var wire 32 @" rs1_in [31:0] $end
$var wire 32 A" pc_in [31:0] $end
$var wire 32 B" imm_in [31:0] $end
$var reg 4 C" aluctrl_out [3:0] $end
$var reg 1 b alusrc_out $end
$var reg 1 ` branch_instr_out $end
$var reg 1 ^ branch_pred_out $end
$var reg 32 D" imm_out [31:0] $end
$var reg 1 T mem2reg_out $end
$var reg 1 N memread_out $end
$var reg 1 K memwrite_out $end
$var reg 32 E" pc_out [31:0] $end
$var reg 5 F" rd_addr_out [4:0] $end
$var reg 1 9 regwrite_out $end
$var reg 5 G" rs1_addr_out [4:0] $end
$var reg 32 H" rs1_out [31:0] $end
$var reg 5 I" rs2_addr_out [4:0] $end
$var reg 32 J" rs2_out [31:0] $end
$upscope $end
$scope module IF_ID $end
$var wire 1 ' clk $end
$var wire 1 K" flush $end
$var wire 1 , stall $end
$var wire 32 L" pc_in [31:0] $end
$var wire 32 M" instruction_in [31:0] $end
$var reg 32 N" instruction_out [31:0] $end
$var reg 32 O" pc_out [31:0] $end
$upscope $end
$scope module Imm_Gen $end
$var wire 32 P" instruction [31:0] $end
$var wire 7 Q" opcode [6:0] $end
$var reg 32 R" imm [31:0] $end
$upscope $end
$scope module Instruction_Memory $end
$var wire 32 S" instr_o [31:0] $end
$var wire 32 T" addr_i [31:0] $end
$upscope $end
$scope module M2_ALU $end
$var wire 32 U" data2_i [31:0] $end
$var wire 1 b select_i $end
$var wire 32 V" data_o [31:0] $end
$var wire 32 W" data1_i [31:0] $end
$upscope $end
$scope module M2_Predict_Branch $end
$var wire 32 X" data1_i [31:0] $end
$var wire 32 Y" data2_i [31:0] $end
$var wire 1 Z" select_i $end
$var wire 32 [" data_o [31:0] $end
$upscope $end
$scope module M2_Recover_From_MisPrediction $end
$var wire 32 \" data1_i [31:0] $end
$var wire 32 ]" data2_i [31:0] $end
$var wire 1 W select_i $end
$var wire 32 ^" data_o [31:0] $end
$upscope $end
$scope module M2_WB $end
$var wire 1 R select_i $end
$var wire 32 _" data_o [31:0] $end
$var wire 32 `" data2_i [31:0] $end
$var wire 32 a" data1_i [31:0] $end
$upscope $end
$scope module M4_ForwardA $end
$var wire 32 b" data1_i [31:0] $end
$var wire 32 c" data2_i [31:0] $end
$var wire 32 d" data3_i [31:0] $end
$var wire 32 e" data4_i [31:0] $end
$var wire 2 f" select_i [1:0] $end
$var reg 32 g" data_o [31:0] $end
$upscope $end
$scope module M4_ForwardB $end
$var wire 32 h" data1_i [31:0] $end
$var wire 32 i" data2_i [31:0] $end
$var wire 32 j" data3_i [31:0] $end
$var wire 32 k" data4_i [31:0] $end
$var wire 2 l" select_i [1:0] $end
$var reg 32 m" data_o [31:0] $end
$upscope $end
$scope module MEM_WB $end
$var wire 32 n" alu_result_in [31:0] $end
$var wire 1 ' clk $end
$var wire 1 S mem2reg_in $end
$var wire 32 o" mem_result_in [31:0] $end
$var wire 5 p" rd_addr_in [4:0] $end
$var wire 1 8 regwrite_in $end
$var reg 32 q" alu_result_out [31:0] $end
$var reg 1 R mem2reg_out $end
$var reg 32 r" mem_result_out [31:0] $end
$var reg 5 s" rd_addr_out [4:0] $end
$var reg 1 7 regwrite_out $end
$upscope $end
$scope module PC $end
$var wire 1 @ PCWrite_i $end
$var wire 1 ' clk_i $end
$var wire 32 t" pc_i [31:0] $end
$var wire 1 ( rst_i $end
$var reg 32 u" pc_o [31:0] $end
$upscope $end
$scope module Registers $end
$var wire 5 v" RDaddr_i [4:0] $end
$var wire 32 w" RDdata_i [31:0] $end
$var wire 5 x" RS1addr_i [4:0] $end
$var wire 5 y" RS2addr_i [4:0] $end
$var wire 1 7 RegWrite_i $end
$var wire 1 ' clk_i $end
$var wire 32 z" RS2data_o [31:0] $end
$var wire 32 {" RS1data_o [31:0] $end
$upscope $end
$upscope $end
$upscope $end
$enddefinitions $end
#0
$dumpvars
b0 {"
b0 z"
b0 y"
b0 x"
b0 w"
b0 v"
b0 u"
b100 t"
b0 s"
b0 r"
b0 q"
b0 p"
b0 o"
b0 n"
b0 m"
b0 l"
b0 k"
b0 j"
b0 i"
b0 h"
b0 g"
b0 f"
b0 e"
b0 d"
b0 c"
b0 b"
b0 a"
b0 `"
b0 _"
b100 ^"
b100 ]"
b100 \"
b100 ["
0Z"
b0 Y"
b100 X"
b0 W"
b0 V"
b0 U"
b0 T"
b10100000000000100010011 S"
b0 R"
b0 Q"
b0 P"
b0 O"
b0 N"
b10100000000000100010011 M"
b0 L"
0K"
b0 J"
bx I"
b0 H"
bx G"
b0 F"
b0 E"
b0 D"
b0 C"
b0 B"
b0 A"
b0 @"
b0 ?"
b0 >"
b0 ="
b0 <"
b1111 ;"
b0 :"
b0 9"
b0 8"
07"
b0 6"
b0 5"
b0 4"
bx 3"
bx 2"
b0 1"
b0 0"
bx /"
b0 ."
b0 -"
b0 ,"
b0 +"
b0 *"
bx )"
b0 ("
b0 '"
b0 &"
b100 %"
b1111 $"
b0 #"
b0 ""
bx !"
bx ~
b1111 }
b0 |
0{
0z
0y
0x
0w
b0 v
b0 u
b11 t
b11 s
b0 r
b100 q
b100 p
b0 o
b0 n
b0 m
b0 l
b0 k
b0 j
b0 i
b0 h
b0 g
b0 f
b1111 e
b0 d
1c
0b
0a
0`
1_
0^
b0 ]
b0 \
b0 [
b0 Z
b10100000000000100010011 Y
b0 X
0W
1V
0U
0T
0S
0R
b0 Q
b0 P
0O
0N
0M
0L
0K
0J
b100 I
0H
b0 G
b0 F
b100 E
b0 D
b100 C
b0 B
b100 A
1@
b0 ?
b0 >
b0 =
b0 <
b0 ;
0:
09
08
07
b0 6
b0 5
bx 4
b0 3
b0 2
b0 1
bx 0
b0 /
b0 .
bx -
0,
b11 +
b100000 *
b0 )
1(
0'
x&
bz %
bz $
x#
bz "
bz !
$end
#12
0(
#25
1:
b11 e
b11 }
b11 $"
b11 ;"
b0 ~
b0 !"
b1000 I
b1000 ^"
b1000 t"
b1010 B
b1010 Y"
1x
b100000000000010010011 Y
b100000000000010010011 M"
b100000000000010010011 S"
b1000 E
b1000 ["
b1000 \"
b101 [
b101 B"
b101 R"
b10011 Q"
b10011 |
b10 ?
b10 <"
b101 1
b101 9"
b101 >"
b101 y"
b0xxxxxxxxxxxxxxxxxxxxxxxxxxxxxxx h
b0xxxxxxxxxxxxxxxxxxxxxxxxxxxxxxx o
b0xxxxxxxxxxxxxxxxxxxxxxxxxxxxxxx +"
b1000 C
b1000 q
b1000 X"
b100 G
b100 r
b100 L"
b100 T"
b100 u"
b10100000000000100010011 X
b10100000000000100010011 N"
b10100000000000100010011 P"
1^
b1111 d
b1111 n
b1111 C"
1b
b0 0
b0 2"
b0 I"
b0 4
b0 3"
b0 G"
b0 -
b0 )"
b0 /"
b1 )
1'
#50
0'
#75
b1100 I
b1100 ^"
b1100 t"
b101 k
b10000000001000010001100011 Y
b10000000001000010001100011 M"
b10000000001000010001100011 S"
b1100 E
b1100 ["
b1100 \"
b101 h
b101 o
b101 +"
0V
b101 i
b101 l
b101 V"
b1 [
b1 B"
b1 R"
b1 ?
b1 <"
b1 1
b1 9"
b1 >"
b1 y"
b1100 C
b1100 q
b1100 X"
b1000 G
b1000 r
b1000 L"
b1000 T"
b1000 u"
b0xxxxxxxxxxxxxxxxxxxxxxxxxxxxxxx g
b0xxxxxxxxxxxxxxxxxxxxxxxxxxxxxxx *"
b0xxxxxxxxxxxxxxxxxxxxxxxxxxxxxxx ."
b0xxxxxxxxxxxxxxxxxxxxxxxxxxxxxxx d"
b0xxxxxxxxxxxxxxxxxxxxxxxxxxxxxxx j"
b0xxxxxxxxxxxxxxxxxxxxxxxxxxxxxxx n"
19
b11 d
b11 n
b11 C"
b101 Z
b101 '"
b101 D"
b101 U"
b10 >
b10 ,"
b10 :"
b10 F"
b101 0
b101 2"
b101 I"
b110 B
b110 Y"
b100 D
b100 A"
b100 O"
b100000000000010010011 X
b100000000000010010011 N"
b100000000000010010011 P"
b10 )
1'
#100
0'
#125
0c
0:
1K"
b100 e
b100 }
b100 $"
b100 ;"
1Z"
b1 ~
b1 !"
b110000 I
b110000 ^"
b110000 t"
0x
1a
1w
b1 k
b1 h
b1 o
b1 +"
b100001000000010010011 Y
b100001000000010010011 M"
b100001000000010010011 S"
b110000 E
b110000 ["
b110000 \"
b10100 [
b10100 B"
b10100 R"
b1100011 Q"
b1 v
b1 #"
b1100011 |
b1000 ?
b1000 <"
b0 1
b0 9"
b0 >"
b0 y"
b1 5
b1 8"
b1 ="
b1 x"
b1000 A
b1000 %"
b1000 ]"
b1 i
b1 l
b1 V"
b0xxxxxxxxxxxxxxxxxxxxxxxxxxxxxxx ;
b0xxxxxxxxxxxxxxxxxxxxxxxxxxxxxxx _"
b0xxxxxxxxxxxxxxxxxxxxxxxxxxxxxxx c"
b0xxxxxxxxxxxxxxxxxxxxxxxxxxxxxxx i"
b0xxxxxxxxxxxxxxxxxxxxxxxxxxxxxxx w"
b10000 C
b10000 q
b10000 X"
b1100 G
b1100 r
b1100 L"
b1100 T"
b1100 u"
b110000 B
b110000 Y"
b1000 D
b1000 A"
b1000 O"
b10000000001000010001100011 X
b10000000001000010001100011 N"
b10000000001000010001100011 P"
b100 F
b100 &"
b100 E"
b1 Z
b1 '"
b1 D"
b1 U"
b1 >
b1 ,"
b1 :"
b1 F"
b1 0
b1 2"
b1 I"
b101 g
b101 *"
b101 ."
b101 d"
b101 j"
b101 n"
b10 =
b10 0"
b10 1"
b10 p"
18
b0xxxxxxxxxxxxxxxxxxxxxxxxxxxxxxx f
b0xxxxxxxxxxxxxxxxxxxxxxxxxxxxxxx a"
b0xxxxxxxxxxxxxxxxxxxxxxxxxxxxxxx q"
b11 )
1'
#150
0'
#175
1c
1K"
b1111 e
b1111 }
b1111 $"
b1111 ;"
b10 s
0Z"
bx ~
bx !"
b1 j
b1 m
b1 g"
b10 ]
b10 6"
b10 f"
b0 k
b1100 I
b1100 ^"
b1100 t"
0a
0w
b0 Y
b0 M"
b0 S"
b101 ;
b101 _"
b101 c"
b101 i"
b101 w"
1W
b1 h
b1 o
b1 +"
b1100 A
b1100 %"
b1100 ]"
0V
b0 i
b0 l
b0 V"
b110100 E
b110100 ["
b110100 \"
b0 [
b0 B"
b0 R"
b0 Q"
b0 v
b0 #"
b0 |
b0 ?
b0 <"
b0 5
b0 8"
b0 ="
b0 x"
b110100 C
b110100 q
b110100 X"
b110000 G
b110000 r
b110000 L"
b110000 T"
b110000 u"
b101 f
b101 a"
b101 q"
b10 <
b10 4"
b10 s"
b10 v"
17
b1 g
b1 *"
b1 ."
b1 d"
b1 j"
b1 n"
b1 =
b1 0"
b1 1"
b1 p"
1`
09
b100 d
b100 n
b100 C"
0b
b1000 F
b1000 &"
b1000 E"
b10100 Z
b10100 '"
b10100 D"
b10100 U"
b1000 >
b1000 ,"
b1000 :"
b1000 F"
b0 0
b0 2"
b0 I"
b1 4
b1 3"
b1 G"
b0 B
b0 Y"
b0 D
b0 A"
b0 O"
b0 X
b0 N"
b0 P"
b100 )
1'
#200
0'
#225
1V
b0 j
b0 m
b0 g"
0K"
b10000 I
b10000 ^"
b10000 t"
b0 ]
b0 6"
b0 f"
b100001000000010010011 Y
b100001000000010010011 M"
b100001000000010010011 S"
b10000 E
b10000 ["
b10000 \"
0W
b0 h
b0 o
b0 +"
b100 A
b100 %"
b100 ]"
b1 ;
b1 _"
b1 c"
b1 i"
b1 w"
b10 t
b10000 C
b10000 q
b10000 X"
b1100 G
b1100 r
b1100 L"
b1100 T"
b1100 u"
0^
0`
b0 d
b0 n
b0 C"
b0 F
b0 &"
b0 E"
b0 Z
b0 '"
b0 D"
b0 U"
b0 >
b0 ,"
b0 :"
b0 F"
b0 4
b0 3"
b0 G"
b1000 =
b1000 0"
b1000 1"
b1000 p"
08
b1 f
b1 a"
b1 q"
b1 <
b1 4"
b1 s"
b1 v"
b101 )
1'
#250
0'
#275
1:
b11 e
b11 }
b11 $"
b11 ;"
b0 ~
b0 !"
b10100 I
b10100 ^"
b10100 t"
1x
b1 2
b1 ?"
b1 z"
b1 6
b1 @"
b1 {"
b1000001000100001100011 Y
b1000001000100001100011 M"
b1000001000100001100011 S"
b10100 E
b10100 ["
b10100 \"
b0xxxxxxxxxxxxxxxxxxxxxxxxxxxxxxx h
b0xxxxxxxxxxxxxxxxxxxxxxxxxxxxxxx o
b0xxxxxxxxxxxxxxxxxxxxxxxxxxxxxxx +"
b1 [
b1 B"
b1 R"
b10011 Q"
b10011 |
b1 ?
b1 <"
b1 1
b1 9"
b1 >"
b1 y"
b1 5
b1 8"
b1 ="
b1 x"
b10100 C
b10100 q
b10100 X"
b10000 G
b10000 r
b10000 L"
b10000 T"
b10000 u"
b1000 <
b1000 4"
b1000 s"
b1000 v"
07
b0 g
b0 *"
b0 ."
b0 d"
b0 j"
b0 n"
b0 =
b0 0"
b0 1"
b0 p"
1^
b1111 d
b1111 n
b1111 C"
1b
b1110 B
b1110 Y"
b1100 D
b1100 A"
b1100 O"
b100001000000010010011 X
b100001000000010010011 N"
b100001000000010010011 P"
b110 )
1'
#300
0'
#325
0c
0:
1K"
b100 e
b100 }
b100 $"
b100 ;"
1Z"
b1 ~
b1 !"
b100000 I
b100000 ^"
b100000 t"
0x
1a
1w
b101 2
b101 ?"
b101 z"
b1 k
b11111110000000000000110011100011 Y
b11111110000000000000110011100011 M"
b11111110000000000000110011100011 S"
b100000 E
b100000 ["
b100000 \"
b1000 [
b1000 B"
b1000 R"
b1100011 Q"
b1100011 |
b10000 ?
b10000 <"
b10 1
b10 9"
b10 >"
b10 y"
b10 h
b10 o
b10 +"
b10000 A
b10000 %"
b10000 ]"
b1 i
b1 l
b1 V"
1V
b1 j
b1 m
b1 g"
b1 .
b1 -"
b1 W"
b1 m"
b0 ;
b0 _"
b0 c"
b0 i"
b0 w"
b11000 C
b11000 q
b11000 X"
b10100 G
b10100 r
b10100 L"
b10100 T"
b10100 u"
b100000 B
b100000 Y"
b10000 D
b10000 A"
b10000 O"
b1000001000100001100011 X
b1000001000100001100011 N"
b1000001000100001100011 P"
19
b11 d
b11 n
b11 C"
b1100 F
b1100 &"
b1100 E"
b1 Z
b1 '"
b1 D"
b1 U"
b1 >
b1 ,"
b1 :"
b1 F"
b1 0
b1 2"
b1 I"
b1 4
b1 3"
b1 G"
b1 /
b1 J"
b1 h"
b1 3
b1 H"
b1 b"
b0xxxxxxxxxxxxxxxxxxxxxxxxxxxxxxx g
b0xxxxxxxxxxxxxxxxxxxxxxxxxxxxxxx *"
b0xxxxxxxxxxxxxxxxxxxxxxxxxxxxxxx ."
b0xxxxxxxxxxxxxxxxxxxxxxxxxxxxxxx d"
b0xxxxxxxxxxxxxxxxxxxxxxxxxxxxxxx j"
b0xxxxxxxxxxxxxxxxxxxxxxxxxxxxxxx n"
b0 f
b0 a"
b0 q"
b0 <
b0 4"
b0 s"
b0 v"
b111 )
1'
#350
0'
#375
1c
b1111 e
b1111 }
b1111 $"
b1111 ;"
0_
1W
0Z"
bx ~
bx !"
b10 j
b10 m
b10 g"
b10 ]
b10 6"
b10 f"
b101 k
b10100 I
b10100 ^"
b10100 t"
0a
0w
b0 2
b0 ?"
b0 z"
b0 6
b0 @"
b0 {"
b11111110000000001000111011100011 Y
b11111110000000001000111011100011 M"
b11111110000000001000111011100011 S"
b0xxxxxxxxxxxxxxxxxxxxxxxxxxxxxxx ;
b0xxxxxxxxxxxxxxxxxxxxxxxxxxxxxxx _"
b0xxxxxxxxxxxxxxxxxxxxxxxxxxxxxxx c"
b0xxxxxxxxxxxxxxxxxxxxxxxxxxxxxxx i"
b0xxxxxxxxxxxxxxxxxxxxxxxxxxxxxxx w"
b1 s
b11111111111111111111111111111101 h
b11111111111111111111111111111101 o
b11111111111111111111111111111101 +"
b10100 A
b10100 %"
b10100 ]"
0V
b101 i
b101 l
b101 V"
b101 .
b101 -"
b101 W"
b101 m"
b100100 E
b100100 ["
b100100 \"
b0 [
b0 B"
b0 R"
b0 Q"
b0 |
b0 ?
b0 <"
b0 1
b0 9"
b0 >"
b0 y"
b0 5
b0 8"
b0 ="
b0 x"
b100100 C
b100100 q
b100100 X"
b100000 G
b100000 r
b100000 L"
b100000 T"
b100000 u"
b0xxxxxxxxxxxxxxxxxxxxxxxxxxxxxxx f
b0xxxxxxxxxxxxxxxxxxxxxxxxxxxxxxx a"
b0xxxxxxxxxxxxxxxxxxxxxxxxxxxxxxx q"
b10 g
b10 *"
b10 ."
b10 d"
b10 j"
b10 n"
b1 =
b1 0"
b1 1"
b1 p"
b1 -
b1 )"
b1 /"
18
1`
09
b100 d
b100 n
b100 C"
0b
b10000 F
b10000 &"
b10000 E"
b1000 Z
b1000 '"
b1000 D"
b1000 U"
b10000 >
b10000 ,"
b10000 :"
b10000 F"
b10 0
b10 2"
b10 I"
b101 /
b101 J"
b101 h"
b0 B
b0 Y"
b0 D
b0 A"
b0 O"
b0 X
b0 N"
b0 P"
b1000 )
1'
#400
0'
#425
b0 k
1V
0K"
b11000 I
b11000 ^"
b11000 t"
b0 i
b0 l
b0 V"
b0 ]
b0 6"
b0 f"
b11111110000000000000110011100011 Y
b11111110000000000000110011100011 M"
b11111110000000000000110011100011 S"
b11000 E
b11000 ["
b11000 \"
0W
b0 h
b0 o
b0 +"
b100 A
b100 %"
b100 ]"
b0 j
b0 m
b0 g"
b0 .
b0 -"
b0 W"
b0 m"
b10 ;
b10 _"
b10 c"
b10 i"
b10 w"
b1 t
b11000 C
b11000 q
b11000 X"
b10100 G
b10100 r
b10100 L"
b10100 T"
b10100 u"
0^
0`
b0 d
b0 n
b0 C"
b0 F
b0 &"
b0 E"
b0 Z
b0 '"
b0 D"
b0 U"
b0 >
b0 ,"
b0 :"
b0 F"
b0 0
b0 2"
b0 I"
b0 4
b0 3"
b0 G"
b0 /
b0 J"
b0 h"
b0 3
b0 H"
b0 b"
b11111111111111111111111111111101 g
b11111111111111111111111111111101 *"
b11111111111111111111111111111101 ."
b11111111111111111111111111111101 d"
b11111111111111111111111111111101 j"
b11111111111111111111111111111101 n"
b10000 =
b10000 0"
b10000 1"
b10000 p"
b101 -
b101 )"
b101 /"
08
b10 f
b10 a"
b10 q"
b1 <
b1 4"
b1 s"
b1 v"
17
b1001 )
1'
#450
0'
#475
0c
b100 e
b100 }
b100 $"
b100 ;"
b1 ~
b1 !"
b11100 I
b11100 ^"
b11100 t"
1a
1w
b10011 Y
b10011 M"
b10011 S"
b11100 E
b11100 ["
b11100 \"
b11111111111111111111111111111101 ;
b11111111111111111111111111111101 _"
b11111111111111111111111111111101 c"
b11111111111111111111111111111101 i"
b11111111111111111111111111111101 w"
b0xxxxxxxxxxxxxxxxxxxxxxxxxxxxxxx h
b0xxxxxxxxxxxxxxxxxxxxxxxxxxxxxxx o
b0xxxxxxxxxxxxxxxxxxxxxxxxxxxxxxx +"
b11111111111111111111111111111100 [
b11111111111111111111111111111100 B"
b11111111111111111111111111111100 R"
b1100011 Q"
b1111111 v
b1111111 #"
b1100011 |
b11001 ?
b11001 <"
b11100 C
b11100 q
b11100 X"
b11000 G
b11000 r
b11000 L"
b11000 T"
b11000 u"
b11111111111111111111111111111101 f
b11111111111111111111111111111101 a"
b11111111111111111111111111111101 q"
b10000 <
b10000 4"
b10000 s"
b10000 v"
07
b0 g
b0 *"
b0 ."
b0 d"
b0 j"
b0 n"
b0 =
b0 0"
b0 1"
b0 p"
b0 -
b0 )"
b0 /"
b1111 d
b1111 n
b1111 C"
1b
b1100 B
b1100 Y"
b10100 D
b10100 A"
b10100 O"
b11111110000000000000110011100011 X
b11111110000000000000110011100011 N"
b11111110000000000000110011100011 P"
b1010 )
1'
#500
0'
#525
1c
1:
b11 e
b11 }
b11 $"
b11 ;"
b0 ~
b0 !"
1_
1x
0a
0w
b1100 I
b1100 ^"
b1100 t"
1K"
b100000 E
b100000 ["
b100000 \"
b0 [
b0 B"
b0 R"
b10011 Q"
b0 v
b0 #"
b10011 |
b0 ?
b0 <"
1W
b10 s
b0 h
b0 o
b0 +"
b1100 A
b1100 %"
b1100 ]"
b0 ;
b0 _"
b0 c"
b0 i"
b0 w"
b100000 C
b100000 q
b100000 X"
b11100 G
b11100 r
b11100 L"
b11100 T"
b11100 u"
b11000 B
b11000 Y"
b11000 D
b11000 A"
b11000 O"
b10011 X
b10011 N"
b10011 P"
1`
b100 d
b100 n
b100 C"
0b
b10100 F
b10100 &"
b10100 E"
b11111111111111111111111111111100 Z
b11111111111111111111111111111100 '"
b11111111111111111111111111111100 D"
b11111111111111111111111111111100 U"
b11001 >
b11001 ,"
b11001 :"
b11001 F"
b0xxxxxxxxxxxxxxxxxxxxxxxxxxxxxxx g
b0xxxxxxxxxxxxxxxxxxxxxxxxxxxxxxx *"
b0xxxxxxxxxxxxxxxxxxxxxxxxxxxxxxx ."
b0xxxxxxxxxxxxxxxxxxxxxxxxxxxxxxx d"
b0xxxxxxxxxxxxxxxxxxxxxxxxxxxxxxx j"
b0xxxxxxxxxxxxxxxxxxxxxxxxxxxxxxx n"
b0 f
b0 a"
b0 q"
b0 <
b0 4"
b0 s"
b0 v"
b1011 )
1'
#550
0'
#575
0:
b1111 e
b1111 }
b1111 $"
b1111 ;"
bx ~
bx !"
0K"
b10000 I
b10000 ^"
b10000 t"
0x
b100001000000010010011 Y
b100001000000010010011 M"
b100001000000010010011 S"
b10000 E
b10000 ["
b10000 \"
b0xxxxxxxxxxxxxxxxxxxxxxxxxxxxxxx ;
b0xxxxxxxxxxxxxxxxxxxxxxxxxxxxxxx _"
b0xxxxxxxxxxxxxxxxxxxxxxxxxxxxxxx c"
b0xxxxxxxxxxxxxxxxxxxxxxxxxxxxxxx i"
b0xxxxxxxxxxxxxxxxxxxxxxxxxxxxxxx w"
0W
b100 A
b100 %"
b100 ]"
b0 Q"
b0 |
b10000 C
b10000 q
b10000 X"
b1100 G
b1100 r
b1100 L"
b1100 T"
b1100 u"
b10 t
b0xxxxxxxxxxxxxxxxxxxxxxxxxxxxxxx f
b0xxxxxxxxxxxxxxxxxxxxxxxxxxxxxxx a"
b0xxxxxxxxxxxxxxxxxxxxxxxxxxxxxxx q"
b0 g
b0 *"
b0 ."
b0 d"
b0 j"
b0 n"
b11001 =
b11001 0"
b11001 1"
b11001 p"
0`
b0 d
b0 n
b0 C"
b0 F
b0 &"
b0 E"
b0 Z
b0 '"
b0 D"
b0 U"
b0 >
b0 ,"
b0 :"
b0 F"
b0 B
b0 Y"
b0 D
b0 A"
b0 O"
b0 X
b0 N"
b0 P"
b1100 )
1'
#600
0'
