lab2/codes/CPU.vcd
$date
	Mon Jan  2 18:29:40 2023
$end
$version
	Icarus Verilog
$end
$timescale
	1s
$end
$scope module Ander $end
$var wire 32 ! data1_i [31:0] $end
$var wire 32 " data2_i [31:0] $end
$var wire 1 # data_o $end
$upscope $end
$scope module Equaler $end
$var wire 32 $ data1_i [31:0] $end
$var wire 32 % data2_i [31:0] $end
$var wire 1 & data_o $end
$upscope $end
$scope module TestBench $end
$var reg 1 ' Clk $end
$var reg 1 ( Reset $end
$var integer 32 ) counter [31:0] $end
$var integer 32 * i [31:0] $end
$var integer 32 + outfile [31:0] $end
$scope module CPU $end
$var wire 1 ' clk_i $end
$var wire 1 ( rst_i $end
$var wire 1 , stall $end
$var wire 32 - rs2_mem [31:0] $end
$var wire 32 . rs2_exe_forwarded [31:0] $end
$var wire 32 / rs2_exe [31:0] $end
$var wire 5 0 rs2_addr_exe [4:0] $end
$var wire 5 1 rs2_addr [4:0] $end
$var wire 32 2 rs2 [31:0] $end
$var wire 32 3 rs1_exe [31:0] $end
$var wire 5 4 rs1_addr_exe [4:0] $end
$var wire 5 5 rs1_addr [4:0] $end
$var wire 32 6 rs1 [31:0] $end
$var wire 1 7 regwrite_wb $end
$var wire 1 8 regwrite_mem $end
$var wire 1 9 regwrite_exe $end
$var wire 1 : regwrite $end
$var wire 32 ; rd_data [31:0] $end
$var wire 5 < rd_addr_wb [4:0] $end
$var wire 5 = rd_addr_mem [4:0] $end
$var wire 5 > rd_addr_exe [4:0] $end
$var wire 5 ? rd_addr [4:0] $end
$var wire 1 @ pcwrite $end
$var wire 32 A pc_rollback [31:0] $end
$var wire 32 B pc_predict_branch [31:0] $end
$var wire 32 C pc_plus_four [31:0] $end
$var wire 32 D pc_id [31:0] $end
$var wire 32 E pc_go_on [31:0] $end
$var wire 32 F pc_exe [31:0] $end
$var wire 32 G pc [31:0] $end
$var wire 1 H noop $end
$var wire 32 I next_pc [31:0] $end
$var wire 1 J memwrite_mem $end
$var wire 1 K memwrite_exe $end
$var wire 1 L memwrite $end
$var wire 1 M memread_mem $end
$var wire 1 N memread_exe $end
$var wire 1 O memread $end
$var wire 32 P mem_result_wb [31:0] $end
$var wire 32 Q mem_result [31:0] $end
$var wire 1 R mem2reg_wb $end
$var wire 1 S mem2reg_mem $end
$var wire 1 T mem2reg_exe $end
$var wire 1 U mem2reg $end
$var wire 1 V is_zero $end
$var wire 1 W is_mispredict $end
$var wire 32 X instruction_id [31:0] $end
$var wire 32 Y instruction [31:0] $end
$var wire 32 Z imm_exe [31:0] $end
$var wire 32 [ imm [31:0] $end
$var wire 2 \ forwardB [1:0] $end
$var wire 2 ] forwardA [1:0] $end
$var wire 1 ^ branch_pred_exe $end
$var wire 1 _ branch_pred $end
$var wire 1 ` branch_instr_exe $end
$var wire 1 a branch_instr $end
$var wire 1 b alusrc_exe $end
$var wire 1 c alusrc $end
$var wire 4 d aluctrl_exe [3:0] $end
$var wire 4 e aluctrl [3:0] $end
$var wire 32 f alu_result_wb [31:0] $end
$var wire 32 g alu_result_mem [31:0] $end
$var wire 32 h alu_result [31:0] $end
$var wire 32 i alu_op2 [31:0] $end
$var wire 32 j alu_op1 [31:0] $end
$scope module ALU $end
$var wire 1 V zero $end
$var wire 5 k shamt [4:0] $end
$var wire 32 l op2 [31:0] $end
$var wire 32 m op1 [31:0] $end
$var wire 4 n aluctrl [3:0] $end
$var reg 32 o result [31:0] $end
$upscope $end
$scope module Add_PC $end
$var wire 32 p data2_i [31:0] $end
$var wire 32 q data_o [31:0] $end
$var wire 32 r data1_i [31:0] $end
$upscope $end
$scope module Branch_Predictor $end
$var wire 1 ' clk_i $end
$var wire 1 V result_i $end
$var wire 1 ( rst_i $end
$var wire 1 ` update_i $end
$var wire 1 _ predict_o $end
$var reg 2 s state [1:0] $end
$upscope $end
$scope module Control $end
$var wire 1 a branch_instr $end
$var wire 3 t funct3 [2:0] $end
$var wire 7 u funct7 [6:0] $end
$var wire 1 v is_beq $end
$var wire 1 w is_i_type $end
$var wire 1 x is_load $end
$var wire 1 y is_r_type $end
$var wire 1 z is_store $end
$var wire 1 U mem2reg $end
$var wire 1 O memread $end
$var wire 1 L memwrite $end
$var wire 7 { opcode [6:0] $end
$var wire 1 : regwrite $end
$var wire 1 H noop $end
$var wire 1 c alusrc $end
$var wire 4 | aluctrl [3:0] $end
$var reg 2 } aluop [1:0] $end
$scope module alucontrol $end
$var wire 2 ~ aluop [1:0] $end
$var wire 3 !" funct3 [2:0] $end
$var wire 7 "" funct7 [6:0] $end
$var reg 4 #" aluctrl [3:0] $end
$upscope $end
$upscope $end
$scope module Control_Hazard_Detection $end
$var wire 1 W is_mispredict $end
$var wire 1 V is_zero $end
$var wire 32 $" pc_rollback [31:0] $end
$var wire 32 %" pc_exe [31:0] $end
$var wire 32 &" imm_exe [31:0] $end
$var wire 1 ^ branch_pred_exe $end
$var wire 1 ` branch_instr_exe $end
$upscope $end
$scope module Data_Memory $end
$var wire 1 ' clk_i $end
$var wire 32 '" data_o [31:0] $end
$var wire 32 (" data_i [31:0] $end
$var wire 32 )" addr_i [31:0] $end
$var wire 1 J MemWrite_i $end
$var wire 1 M MemRead_i $end
$upscope $end
$scope module EXE_MEM $end
$var wire 32 *" alu_result_in [31:0] $end
$var wire 1 ' clk $end
$var wire 1 9 regwrite_in $end
$var wire 5 +" rd_addr_in [4:0] $end
$var wire 1 K memwrite_in $end
$var wire 32 ," memwrite_addr_in [31:0] $end
$var wire 1 N memread_in $end
$var wire 1 T mem2reg_in $end
$var reg 32 -" alu_result_out [31:0] $end
$var reg 1 S mem2reg_out $end
$var reg 1 M memread_out $end
$var reg 32 ." memwrite_addr_out [31:0] $end
$var reg 1 J memwrite_out $end
$var reg 5 /" rd_addr_out [4:0] $end
$var reg 1 8 regwrite_out $end
$upscope $end
$scope module Forwarding $end
$var wire 5 0" rd_addr_mem [4:0] $end
$var wire 1 8 regwrite_mem $end
$var wire 5 1" rs2_addr_exe [4:0] $end
$var wire 5 2" rs1_addr_exe [4:0] $end
$var wire 1 7 regwrite_wb $end
$var wire 5 3" rd_addr_wb [4:0] $end
$var wire 2 4" forwardB [1:0] $end
$var wire 2 5" forwardA [1:0] $end
$upscope $end
$scope module Hazard_Detection $end
$var wire 1 6" is_load_use $end
$var wire 1 H noop $end
$var wire 5 7" rs1_addr [4:0] $end
$var wire 5 8" rs2_addr [4:0] $end
$var wire 1 , stall $end
$var wire 5 9" rd_addr_exe [4:0] $end
$var wire 1 @ pcwrite $end
$var wire 1 N memread_exe $end
$upscope $end
$scope module ID_EXE $end
$var wire 4 :" aluctrl_in [3:0] $end
$var wire 1 c alusrc_in $end
$var wire 1 a branch_instr_in $end
$var wire 1 _ branch_pred_in $end
$var wire 1 ' clk $end
$var wire 1 W flush $end
$var wire 1 U mem2reg_in $end
$var wire 1 O memread_in $end
$var wire 1 L memwrite_in $end
$var wire 5 ;" rd_addr_in [4:0] $end
$var wire 1 : regwrite_in $end
$var wire 5 <" rs1_addr_in [4:0] $end
$var wire 5 =" rs2_addr_in [4:0] $end
$var wire 32 >" rs2_in [31:0] $end
$var wire 32 ?" rs1_in [31:0] $end
$var wire 32 @" pc_in [31:0] $end
$var wire 32 A" imm_in [31:0] $end
$var reg 4 B" aluctrl_out [3:0] $end
$var reg 1 b alusrc_out $end
$var reg 1 ` branch_instr_out $end
$var reg 1 ^ branch_pred_out $end
$var reg 32 C" imm_out [31:0] $end
$var reg 1 T mem2reg_out $end
$var reg 1 N memread_out $end
$var reg 1 K memwrite_out $end
$var reg 32 D" pc_out [31:0] $end
$var reg 5 E" rd_addr_out [4:0] $end
$var reg 1 9 regwrite_out $end
$var reg 5 F" rs1_addr_out [4:0] $end
$var reg 32 G" rs1_out [31:0] $end
$var reg 5 H" rs2_addr_out [4:0] $end
$var reg 32 I" rs2_out [31:0] $end
$upscope $end
$scope module IF_ID $end
$var wire 1 ' clk $end
$var wire 1 J" flush $end
$var wire 1 , stall $end
$var wire 32 K" pc_in [31:0] $end
$var wire 32 L" instruction_in [31:0] $end
$var reg 32 M" instruction_out [31:0] $end
$var reg 32 N" pc_out [31:0] $end
$upscope $end
$scope module Imm_Gen $end
$var wire 32 O" instruction [31:0] $end
$var wire 7 P" opcode [6:0] $end
$var reg 32 Q" imm [31:0] $end
$upscope $end
$scope module Instruction_Memory $end
$var wire 32 R" instr_o [31:0] $end
$var wire 32 S" addr_i [31:0] $end
$upscope $end
$scope module M2_ALU $end
$var wire 32 T" data2_i [31:0] $end
$var wire 1 b select_i $end
$var wire 32 U" data_o [31:0] $end
$var wire 32 V" data1_i [31:0] $end
$upscope $end
$scope module M2_Predict_Branch $end
$var wire 32 W" data1_i [31:0] $end
$var wire 32 X" data2_i [31:0] $end
$var wire 1 Y" select_i $end
$var wire 32 Z" data_o [31:0] $end
$upscope $end
$scope module M2_Recover_From_MisPrediction $end
$var wire 32 [" data1_i [31:0] $end
$var wire 32 \" data2_i [31:0] $end
$var wire 1 W select_i $end
$var wire 32 ]" data_o [31:0] $end
$upscope $end
$scope module M2_WB $end
$var wire 1 R select_i $end
$var wire 32 ^" data_o [31:0] $end
$var wire 32 _" data2_i [31:0] $end
$var wire 32 `" data1_i [31:0] $end
$upscope $end
$scope module M4_ForwardA $end
$var wire 32 a" data1_i [31:0] $end
$var wire 32 b" data2_i [31:0] $end
$var wire 32 c" data3_i [31:0] $end
$var wire 32 d" data4_i [31:0] $end
$var wire 2 e" select_i [1:0] $end
$var reg 32 f" data_o [31:0] $end
$upscope $end
$scope module M4_ForwardB $end
$var wire 32 g" data1_i [31:0] $end
$var wire 32 h" data2_i [31:0] $end
$var wire 32 i" data3_i [31:0] $end
$var wire 32 j" data4_i [31:0] $end
$var wire 2 k" select_i [1:0] $end
$var reg 32 l" data_o [31:0] $end
$upscope $end
$scope module MEM_WB $end
$var wire 32 m" alu_result_in [31:0] $end
$var wire 1 ' clk $end
$var wire 1 S mem2reg_in $end
$var wire 32 n" mem_result_in [31:0] $end
$var wire 5 o" rd_addr_in [4:0] $end
$var wire 1 8 regwrite_in $end
$var reg 32 p" alu_result_out [31:0] $end
$var reg 1 R mem2reg_out $end
$var reg 32 q" mem_result_out [31:0] $end
$var reg 5 r" rd_addr_out [4:0] $end
$var reg 1 7 regwrite_out $end
$upscope $end
$scope module PC $end
$var wire 1 @ PCWrite_i $end
$var wire 1 ' clk_i $end
$var wire 32 s" pc_i [31:0] $end
$var wire 1 ( rst_i $end
$var reg 32 t" pc_o [31:0] $end
$upscope $end
$scope module Registers $end
$var wire 5 u" RDaddr_i [4:0] $end
$var wire 32 v" RDdata_i [31:0] $end
$var wire 5 w" RS1addr_i [4:0] $end
$var wire 5 x" RS2addr_i [4:0] $end
$var wire 1 7 RegWrite_i $end
$var wire 1 ' clk_i $end
$var wire 32 y" RS2data_o [31:0] $end
$var wire 32 z" RS1data_o [31:0] $end
$upscope $end
$upscope $end
$upscope $end
$enddefinitions $end
#0
$dumpvars
b0 z"
b0 y"
b0 x"
b0 w"
b0 v"
b0 u"
b0 t"
b100 s"
b0 r"
b0 q"
b0 p"
b0 o"
b0 n"
b0 m"
b0 l"
b0 k"
b0 j"
b0 i"
b0 h"
b0 g"
b0 f"
b0 e"
b0 d"
b0 c"
b0 b"
b0 a"
b0 `"
b0 _"
b0 ^"
b100 ]"
b100 \"
b100 ["
b100 Z"
0Y"
b0 X"
b100 W"
b0 V"
b0 U"
b0 T"
b0 S"
b10100000000000100010011 R"
b0 Q"
b0 P"
b0 O"
b0 N"
b0 M"
b10100000000000100010011 L"
b0 K"
0J"
b0 I"
bx H"
b0 G"
bx F"
b0 E"
b0 D"
b0 C"
b0 B"
b0 A"
b0 @"
b0 ?"
b0 >"
b0 ="
b0 <"
b0 ;"
b1111 :"
b0 9"
b0 8"
b0 7"
06"
b0 5"
b0 4"
b0 3"
bx 2"
bx 1"
b0 0"
b0 /"
bx ."
b0 -"
b0 ,"
b0 +"
b0 *"
b0 )"
bx ("
b0 '"
b0 &"
b0 %"
b100 $"
b1111 #"
b0 ""
b0 !"
bx ~
bx }
b1111 |
b0 {
0z
0y
0x
0w
0v
b0 u
b0 t
b11 s
b0 r
b100 q
b100 p
b0 o
b0 n
b0 m
b0 l
b0 k
b0 j
b0 i
b0 h
b0 g
b0 f
b1111 e
b0 d
1c
0b
0a
0`
1_
0^
b0 ]
b0 \
b0 [
b0 Z
b10100000000000100010011 Y
b0 X
0W
1V
0U
0T
0S
0R
b0 Q
b0 P
0O
0N
0M
0L
0K
0J
b100 I
0H
b0 G
b0 F
b100 E
b0 D
b100 C
b0 B
b100 A
1@
b0 ?
b0 >
b0 =
b0 <
b0 ;
0:
09
08
07
b0 6
b0 5
bx 4
b0 3
b0 2
b0 1
bx 0
b0 /
b0 .
bx -
0,
b11 +
b100000 *
b0 )
1(
0'
x&
bz %
bz $
x#
bz "
bz !
$end
#12
0(
#25
1:
b11 e
b11 |
b11 #"
b11 :"
b0 }
b0 ~
b1000 I
b1000 ]"
b1000 s"
b1010 B
b1010 X"
1w
b100000000000010010011 Y
b100000000000010010011 L"
b100000000000010010011 R"
b1000 E
b1000 Z"
b1000 ["
b101 [
b101 A"
b101 Q"
b10011 P"
b10011 {
b10 ?
b10 ;"
b101 1
b101 8"
b101 ="
b101 x"
b0xxxxxxxxxxxxxxxxxxxxxxxxxxxxxxx h
b0xxxxxxxxxxxxxxxxxxxxxxxxxxxxxxx o
b0xxxxxxxxxxxxxxxxxxxxxxxxxxxxxxx *"
b1000 C
b1000 q
b1000 W"
b100 G
b100 r
b100 K"
b100 S"
b100 t"
b10100000000000100010011 X
b10100000000000100010011 M"
b10100000000000100010011 O"
1^
b1111 d
b1111 n
b1111 B"
1b
b0 0
b0 1"
b0 H"
b0 4
b0 2"
b0 F"
b0 -
b0 ("
b0 ."
b1 )
1'
#50
0'
#75
b1100 I
b1100 ]"
b1100 s"
b101 k
b10000000001000010001100011 Y
b10000000001000010001100011 L"
b10000000001000010001100011 R"
b1100 E
b1100 Z"
b1100 ["
b101 h
b101 o
b101 *"
0V
b101 i
b101 l
b101 U"
b1 [
b1 A"
b1 Q"
b1 ?
b1 ;"
b1 1
b1 8"
b1 ="
b1 x"
b1100 C
b1100 q
b1100 W"
b1000 G
b1000 r
b1000 K"
b1000 S"
b1000 t"
b0xxxxxxxxxxxxxxxxxxxxxxxxxxxxxxx g
b0xxxxxxxxxxxxxxxxxxxxxxxxxxxxxxx )"
b0xxxxxxxxxxxxxxxxxxxxxxxxxxxxxxx -"
b0xxxxxxxxxxxxxxxxxxxxxxxxxxxxxxx c"
b0xxxxxxxxxxxxxxxxxxxxxxxxxxxxxxx i"
b0xxxxxxxxxxxxxxxxxxxxxxxxxxxxxxx m"
19
b11 d
b11 n
b11 B"
b101 Z
b101 &"
b101 C"
b101 T"
b10 >
b10 +"
b10 9"
b10 E"
b101 0
b101 1"
b101 H"
b110 B
b110 X"
b100 D
b100 @"
b100 N"
b100000000000010010011 X
b100000000000010010011 M"
b100000000000010010011 O"
b10 )
1'
#100
0'
#125
0c
0:
1J"
b100 e
b100 |
b100 #"
b100 :"
1Y"
b1 }
b1 ~
b110000 I
b110000 ]"
b110000 s"
0w
1a
1v
b1 k
b1 h
b1 o
b1 *"
b100001000000010010011 Y
b100001000000010010011 L"
b100001000000010010011 R"
b110000 E
b110000 Z"
b110000 ["
b10100 [
b10100 A"
b10100 Q"
b1100011 P"
b1 u
b1 ""
b1100011 {
b1000 ?
b1000 ;"
b0 1
b0 8"
b0 ="
b0 x"
b1 5
b1 7"
b1 <"
b1 w"
b1000 A
b1000 $"
b1000 \"
b1 i
b1 l
b1 U"
b0xxxxxxxxxxxxxxxxxxxxxxxxxxxxxxx ;
b0xxxxxxxxxxxxxxxxxxxxxxxxxxxxxxx ^"
b0xxxxxxxxxxxxxxxxxxxxxxxxxxxxxxx b"
b0xxxxxxxxxxxxxxxxxxxxxxxxxxxxxxx h"
b0xxxxxxxxxxxxxxxxxxxxxxxxxxxxxxx v"
b10000 C
b10000 q
b10000 W"
b1100 G
b1100 r
b1100 K"
b1100 S"
b1100 t"
b110000 B
b110000 X"
b1000 D
b1000 @"
b1000 N"
b10000000001000010001100011 X
b10000000001000010001100011 M"
b10000000001000010001100011 O"
b100 F
b100 %"
b100 D"
b1 Z
b1 &"
b1 C"
b1 T"
b1 >
b1 +"
b1 9"
b1 E"
b1 0
b1 1"
b1 H"
b101 g
b101 )"
b101 -"
b101 c"
b101 i"
b101 m"
b10 =
b10 /"
b10 0"
b10 o"
18
b0xxxxxxxxxxxxxxxxxxxxxxxxxxxxxxx f
b0xxxxxxxxxxxxxxxxxxxxxxxxxxxxxxx `"
b0xxxxxxxxxxxxxxxxxxxxxxxxxxxxxxx p"
b11 )
1'
#150
0'
#175
1c
1J"
b1111 e
b1111 |
b1111 #"
b1111 :"
0Y"
bx }
bx ~
b1 j
b1 m
b1 f"
b10 ]
b10 5"
b10 e"
b0 k
b1100 I
b1100 ]"
b1100 s"
0a
0v
b0 Y
b0 L"
b0 R"
b101 ;
b101 ^"
b101 b"
b101 h"
b101 v"
1W
b1 h
b1 o
b1 *"
b1100 A
b1100 $"
b1100 \"
0V
b0 i
b0 l
b0 U"
b110100 E
b110100 Z"
b110100 ["
b0 [
b0 A"
b0 Q"
b0 P"
b0 u
b0 ""
b0 {
b0 ?
b0 ;"
b0 5
b0 7"
b0 <"
b0 w"
b110100 C
b110100 q
b110100 W"
b110000 G
b110000 r
b110000 K"
b110000 S"
b110000 t"
b101 f
b101 `"
b101 p"
b10 <
b10 3"
b10 r"
b10 u"
17
b1 g
b1 )"
b1 -"
b1 c"
b1 i"
b1 m"
b1 =
b1 /"
b1 0"
b1 o"
1`
09
b100 d
b100 n
b100 B"
0b
b1000 F
b1000 %"
b1000 D"
b10100 Z
b10100 &"
b10100 C"
b10100 T"
b1000 >
b1000 +"
b1000 9"
b1000 E"
b0 0
b0 1"
b0 H"
b1 4
b1 2"
b1 F"
b0 B
b0 X"
b0 D
b0 @"
b0 N"
b0 X
b0 M"
b0 O"
b100 )
1'
#200
0'
#225
1V
b0 j
b0 m
b0 f"
0J"
b10000 I
b10000 ]"
b10000 s"
b0 ]
b0 5"
b0 e"
b100001000000010010011 Y
b100001000000010010011 L"
b100001000000010010011 R"
b10000 E
b10000 Z"
b10000 ["
0W
b0 h
b0 o
b0 *"
b100 A
b100 $"
b100 \"
b1 ;
b1 ^"
b1 b"
b1 h"
b1 v"
b10 s
b10000 C
b10000 q
b10000 W"
b1100 G
b1100 r
b1100 K"
b1100 S"
b1100 t"
0^
0`
b0 d
b0 n
b0 B"
b0 F
b0 %"
b0 D"
b0 Z
b0 &"
b0 C"
b0 T"
b0 >
b0 +"
b0 9"
b0 E"
b0 4
b0 2"
b0 F"
b1000 =
b1000 /"
b1000 0"
b1000 o"
08
b1 f
b1 `"
b1 p"
b1 <
b1 3"
b1 r"
b1 u"
b101 )
1'
#250
0'
#275
1:
b11 e
b11 |
b11 #"
b11 :"
b0 }
b0 ~
b10100 I
b10100 ]"
b10100 s"
1w
b1 2
b1 >"
b1 y"
b1 6
b1 ?"
b1 z"
b1000001000100001100011 Y
b1000001000100001100011 L"
b1000001000100001100011 R"
b10100 E
b10100 Z"
b10100 ["
b0xxxxxxxxxxxxxxxxxxxxxxxxxxxxxxx h
b0xxxxxxxxxxxxxxxxxxxxxxxxxxxxxxx o
b0xxxxxxxxxxxxxxxxxxxxxxxxxxxxxxx *"
b1 [
b1 A"
b1 Q"
b10011 P"
b10011 {
b1 ?
b1 ;"
b1 1
b1 8"
b1 ="
b1 x"
b1 5
b1 7"
b1 <"
b1 w"
b10100 C
b10100 q
b10100 W"
b10000 G
b10000 r
b10000 K"
b10000 S"
b10000 t"
b1000 <
b1000 3"
b1000 r"
b1000 u"
07
b0 g
b0 )"
b0 -"
b0 c"
b0 i"
b0 m"
b0 =
b0 /"
b0 0"
b0 o"
1^
b1111 d
b1111 n
b1111 B"
1b
b1110 B
b1110 X"
b1100 D
b1100 @"
b1100 N"
b100001000000010010011 X
b100001000000010010011 M"
b100001000000010010011 O"
b110 )
1'
#300
0'
#325
0c
0:
1J"
b100 e
b100 |
b100 #"
b100 :"
1Y"
b1 }
b1 ~
b100000 I
b100000 ]"
b100000 s"
0w
1a
1v
b101 2
b101 >"
b101 y"
b1 k
b11111110000000000000110011100011 Y
b11111110000000000000110011100011 L"
b11111110000000000000110011100011 R"
b100000 E
b100000 Z"
b100000 ["
b1000 [
b1000 A"
b1000 Q"
b1100011 P"
b1100011 {
b10000 ?
b10000 ;"
b10 1
b10 8"
b10 ="
b10 x"
b10 h
b10 o
b10 *"
b10000 A
b10000 $"
b10000 \"
b1 i
b1 l
b1 U"
1V
b1 j
b1 m
b1 f"
b1 .
b1 ,"
b1 V"
b1 l"
b0 ;
b0 ^"
b0 b"
b0 h"
b0 v"
b11000 C
b11000 q
b11000 W"
b10100 G
b10100 r
b10100 K"
b10100 S"
b10100 t"
b100000 B
b100000 X"
b10000 D
b10000 @"
b10000 N"
b1000001000100001100011 X
b1000001000100001100011 M"
b1000001000100001100011 O"
19
b11 d
b11 n
b11 B"
b1100 F
b1100 %"
b1100 D"
b1 Z
b1 &"
b1 C"
b1 T"
b1 >
b1 +"
b1 9"
b1 E"
b1 0
b1 1"
b1 H"
b1 4
b1 2"
b1 F"
b1 /
b1 I"
b1 g"
b1 3
b1 G"
b1 a"
b0xxxxxxxxxxxxxxxxxxxxxxxxxxxxxxx g
b0xxxxxxxxxxxxxxxxxxxxxxxxxxxxxxx )"
b0xxxxxxxxxxxxxxxxxxxxxxxxxxxxxxx -"
b0xxxxxxxxxxxxxxxxxxxxxxxxxxxxxxx c"
b0xxxxxxxxxxxxxxxxxxxxxxxxxxxxxxx i"
b0xxxxxxxxxxxxxxxxxxxxxxxxxxxxxxx m"
b0 f
b0 `"
b0 p"
b0 <
b0 3"
b0 r"
b0 u"
b111 )
1'
#350
0'
#375
1c
b1111 e
b1111 |
b1111 #"
b1111 :"
1W
0Y"
bx }
bx ~
b10 j
b10 m
b10 f"
b10 ]
b10 5"
b10 e"
b101 k
b10100 I
b10100 ]"
b10100 s"
0a
0v
b0 2
b0 >"
b0 y"
b0 6
b0 ?"
b0 z"
b11111110000000001000111011100011 Y
b11111110000000001000111011100011 L"
b11111110000000001000111011100011 R"
b0xxxxxxxxxxxxxxxxxxxxxxxxxxxxxxx ;
b0xxxxxxxxxxxxxxxxxxxxxxxxxxxxxxx ^"
b0xxxxxxxxxxxxxxxxxxxxxxxxxxxxxxx b"
b0xxxxxxxxxxxxxxxxxxxxxxxxxxxxxxx h"
b0xxxxxxxxxxxxxxxxxxxxxxxxxxxxxxx v"
b11111111111111111111111111111101 h
b11111111111111111111111111111101 o
b11111111111111111111111111111101 *"
b10100 A
b10100 $"
b10100 \"
0V
b101 i
b101 l
b101 U"
b101 .
b101 ,"
b101 V"
b101 l"
b100100 E
b100100 Z"
b100100 ["
b0 [
b0 A"
b0 Q"
b0 P"
b0 {
b0 ?
b0 ;"
b0 1
b0 8"
b0 ="
b0 x"
b0 5
b0 7"
b0 <"
b0 w"
b100100 C
b100100 q
b100100 W"
b100000 G
b100000 r
b100000 K"
b100000 S"
b100000 t"
b0xxxxxxxxxxxxxxxxxxxxxxxxxxxxxxx f
b0xxxxxxxxxxxxxxxxxxxxxxxxxxxxxxx `"
b0xxxxxxxxxxxxxxxxxxxxxxxxxxxxxxx p"
b10 g
b10 )"
b10 -"
b10 c"
b10 i"
b10 m"
b1 =
b1 /"
b1 0"
b1 o"
b1 -
b1 ("
b1 ."
18
1`
09
b100 d
b100 n
b100 B"
0b
b10000 F
b10000 %"
b10000 D"
b1000 Z
b1000 &"
b1000 C"
b1000 T"
b10000 >
b10000 +"
b10000 9"
b10000 E"
b10 0
b10 1"
b10 H"
b101 /
b101 I"
b101 g"
b0 B
b0 X"
b0 D
b0 @"
b0 N"
b0 X
b0 M"
b0 O"
b1000 )
1'
#400
0'
#425
b0 k
1V
0_
0J"
b11000 I
b11000 ]"
b11000 s"
b0 i
b0 l
b0 U"
b0 ]
b0 5"
b0 e"
b11111110000000000000110011100011 Y
b11111110000000000000110011100011 L"
b11111110000000000000110011100011 R"
b11000 E
b11000 Z"
b11000 ["
0W
b0 h
b0 o
b0 *"
b100 A
b100 $"
b100 \"
b0 j
b0 m
b0 f"
b0 .
b0 ,"
b0 V"
b0 l"
b10 ;
b10 ^"
b10 b"
b10 h"
b10 v"
b1 s
b11000 C
b11000 q
b11000 W"
b10100 G
b10100 r
b10100 K"
b10100 S"
b10100 t"
0^
0`
b0 d
b0 n
b0 B"
b0 F
b0 %"
b0 D"
b0 Z
b0 &"
b0 C"
b0 T"
b0 >
b0 +"
b0 9"
b0 E"
b0 0
b0 1"
b0 H"
b0 4
b0 2"
b0 F"
b0 /
b0 I"
b0 g"
b0 3
b0 G"
b0 a"
b11111111111111111111111111111101 g
b11111111111111111111111111111101 )"
b11111111111111111111111111111101 -"
b11111111111111111111111111111101 c"
b11111111111111111111111111111101 i"
b11111111111111111111111111111101 m"
b10000 =
b10000 /"
b10000 0"
b10000 o"
b101 -
b101 ("
b101 ."
08
b10 f
b10 `"
b10 p"
b1 <
b1 3"
b1 r"
b1 u"
17
b1001 )
1'
#450
0'
#475
0c
b100 e
b100 |
b100 #"
b100 :"
b1 }
b1 ~
b11100 I
b11100 ]"
b11100 s"
1a
1v
b10011 Y
b10011 L"
b10011 R"
b11100 E
b11100 Z"
b11100 ["
b11111111111111111111111111111101 ;
b11111111111111111111111111111101 ^"
b11111111111111111111111111111101 b"
b11111111111111111111111111111101 h"
b11111111111111111111111111111101 v"
b0xxxxxxxxxxxxxxxxxxxxxxxxxxxxxxx h
b0xxxxxxxxxxxxxxxxxxxxxxxxxxxxxxx o
b0xxxxxxxxxxxxxxxxxxxxxxxxxxxxxxx *"
b11111111111111111111111111111100 [
b11111111111111111111111111111100 A"
b11111111111111111111111111111100 Q"
b1100011 P"
b1111111 u
b1111111 ""
b1100011 {
b11001 ?
b11001 ;"
b11100 C
b11100 q
b11100 W"
b11000 G
b11000 r
b11000 K"
b11000 S"
b11000 t"
b11111111111111111111111111111101 f
b11111111111111111111111111111101 `"
b11111111111111111111111111111101 p"
b10000 <
b10000 3"
b10000 r"
b10000 u"
07
b0 g
b0 )"
b0 -"
b0 c"
b0 i"
b0 m"
b0 =
b0 /"
b0 0"
b0 o"
b0 -
b0 ("
b0 ."
b1111 d
b1111 n
b1111 B"
1b
b1100 B
b1100 X"
b10100 D
b10100 @"
b10100 N"
b11111110000000000000110011100011 X
b11111110000000000000110011100011 M"
b11111110000000000000110011100011 O"
b1010 )
1'
#500
0'
#525
1c
1:
b11 e
b11 |
b11 #"
b11 :"
b0 }
b0 ~
1w
0a
0v
b1100 I
b1100 ]"
b1100 s"
1J"
b100000 E
b100000 Z"
b100000 ["
b0 [
b0 A"
b0 Q"
b10011 P"
b0 u
b0 ""
b10011 {
b0 ?
b0 ;"
1W
b0 h
b0 o
b0 *"
b1100 A
b1100 $"
b1100 \"
b0 ;
b0 ^"
b0 b"
b0 h"
b0 v"
b100000 C
b100000 q
b100000 W"
b11100 G
b11100 r
b11100 K"
b11100 S"
b11100 t"
b11000 B
b11000 X"
b11000 D
b11000 @"
b11000 N"
b10011 X
b10011 M"
b10011 O"
1`
b100 d
b100 n
b100 B"
0b
b10100 F
b10100 %"
b10100 D"
b11111111111111111111111111111100 Z
b11111111111111111111111111111100 &"
b11111111111111111111111111111100 C"
b11111111111111111111111111111100 T"
b11001 >
b11001 +"
b11001 9"
b11001 E"
b0xxxxxxxxxxxxxxxxxxxxxxxxxxxxxxx g
b0xxxxxxxxxxxxxxxxxxxxxxxxxxxxxxx )"
b0xxxxxxxxxxxxxxxxxxxxxxxxxxxxxxx -"
b0xxxxxxxxxxxxxxxxxxxxxxxxxxxxxxx c"
b0xxxxxxxxxxxxxxxxxxxxxxxxxxxxxxx i"
b0xxxxxxxxxxxxxxxxxxxxxxxxxxxxxxx m"
b0 f
b0 `"
b0 p"
b0 <
b0 3"
b0 r"
b0 u"
b1011 )
1'
#550
0'
#575
0:
b1111 e
b1111 |
b1111 #"
b1111 :"
bx }
bx ~
1_
0J"
b10000 I
b10000 ]"
b10000 s"
0w
b100001000000010010011 Y
b100001000000010010011 L"
b100001000000010010011 R"
b10000 E
b10000 Z"
b10000 ["
b0xxxxxxxxxxxxxxxxxxxxxxxxxxxxxxx ;
b0xxxxxxxxxxxxxxxxxxxxxxxxxxxxxxx ^"
b0xxxxxxxxxxxxxxxxxxxxxxxxxxxxxxx b"
b0xxxxxxxxxxxxxxxxxxxxxxxxxxxxxxx h"
b0xxxxxxxxxxxxxxxxxxxxxxxxxxxxxxx v"
0W
b100 A
b100 $"
b100 \"
b0 P"
b0 {
b10000 C
b10000 q
b10000 W"
b1100 G
b1100 r
b1100 K"
b1100 S"
b1100 t"
b10 s
b0xxxxxxxxxxxxxxxxxxxxxxxxxxxxxxx f
b0xxxxxxxxxxxxxxxxxxxxxxxxxxxxxxx `"
b0xxxxxxxxxxxxxxxxxxxxxxxxxxxxxxx p"
b0 g
b0 )"
b0 -"
b0 c"
b0 i"
b0 m"
b11001 =
b11001 /"
b11001 0"
b11001 o"
0`
b0 d
b0 n
b0 B"
b0 F
b0 %"
b0 D"
b0 Z
b0 &"
b0 C"
b0 T"
b0 >
b0 +"
b0 9"
b0 E"
b0 B
b0 X"
b0 D
b0 @"
b0 N"
b0 X
b0 M"
b0 O"
b1100 )
1'
#600
0'
